5000,Dummy5000,6000
4999,Dummy4999,5999
4998,Dummy4998,5998
4997,Dummy4997,5997
4996,Dummy4996,5996
4995,Dummy4995,5995
4994,Dummy4994,5994
4993,Dummy4993,5993
4992,Dummy4992,5992
4991,Dummy4991,5991
4990,Dummy4990,5990
4989,Dummy4989,5989
4988,Dummy4988,5988
4987,Dummy4987,5987
4986,Dummy4986,5986
4985,Dummy4985,5985
4984,Dummy4984,5984
4983,Dummy4983,5983
4982,Dummy4982,5982
4981,Dummy4981,5981
4980,Dummy4980,5980
4979,Dummy4979,5979
4978,Dummy4978,5978
4977,Dummy4977,5977
4976,Dummy4976,5976
4975,Dummy4975,5975
4974,Dummy4974,5974
4973,Dummy4973,5973
4972,Dummy4972,5972
4971,Dummy4971,5971
4970,Dummy4970,5970
4969,Dummy4969,5969
4968,Dummy4968,5968
4967,Dummy4967,5967
4966,Dummy4966,5966
4965,Dummy4965,5965
4964,Dummy4964,5964
4963,Dummy4963,5963
4962,Dummy4962,5962
4961,Dummy4961,5961
4960,Dummy4960,5960
4959,Dummy4959,5959
4958,Dummy4958,5958
4957,Dummy4957,5957
4956,Dummy4956,5956
4955,Dummy4955,5955
4954,Dummy4954,5954
4953,Dummy4953,5953
4952,Dummy4952,5952
4951,Dummy4951,5951
4950,Dummy4950,5950
4949,Dummy4949,5949
4948,Dummy4948,5948
4947,Dummy4947,5947
4946,Dummy4946,5946
4945,Dummy4945,5945
4944,Dummy4944,5944
4943,Dummy4943,5943
4942,Dummy4942,5942
4941,Dummy4941,5941
4940,Dummy4940,5940
4939,Dummy4939,5939
4938,Dummy4938,5938
4937,Dummy4937,5937
4936,Dummy4936,5936
4935,Dummy4935,5935
4934,Dummy4934,5934
4933,Dummy4933,5933
4932,Dummy4932,5932
4931,Dummy4931,5931
4930,Dummy4930,5930
4929,Dummy4929,5929
4928,Dummy4928,5928
4927,Dummy4927,5927
4926,Dummy4926,5926
4925,Dummy4925,5925
4924,Dummy4924,5924
4923,Dummy4923,5923
4922,Dummy4922,5922
4921,Dummy4921,5921
4920,Dummy4920,5920
4919,Dummy4919,5919
4918,Dummy4918,5918
4917,Dummy4917,5917
4916,Dummy4916,5916
4915,Dummy4915,5915
4914,Dummy4914,5914
4913,Dummy4913,5913
4912,Dummy4912,5912
4911,Dummy4911,5911
4910,Dummy4910,5910
4909,Dummy4909,5909
4908,Dummy4908,5908
4907,Dummy4907,5907
4906,Dummy4906,5906
4905,Dummy4905,5905
4904,Dummy4904,5904
4903,Dummy4903,5903
4902,Dummy4902,5902
4901,Dummy4901,5901
4900,Dummy4900,5900
4899,Dummy4899,5899
4898,Dummy4898,5898
4897,Dummy4897,5897
4896,Dummy4896,5896
4895,Dummy4895,5895
4894,Dummy4894,5894
4893,Dummy4893,5893
4892,Dummy4892,5892
4891,Dummy4891,5891
4890,Dummy4890,5890
4889,Dummy4889,5889
4888,Dummy4888,5888
4887,Dummy4887,5887
4886,Dummy4886,5886
4885,Dummy4885,5885
4884,Dummy4884,5884
4883,Dummy4883,5883
4882,Dummy4882,5882
4881,Dummy4881,5881
4880,Dummy4880,5880
4879,Dummy4879,5879
4878,Dummy4878,5878
4877,Dummy4877,5877
4876,Dummy4876,5876
4875,Dummy4875,5875
4874,Dummy4874,5874
4873,Dummy4873,5873
4872,Dummy4872,5872
4871,Dummy4871,5871
4870,Dummy4870,5870
4869,Dummy4869,5869
4868,Dummy4868,5868
4867,Dummy4867,5867
4866,Dummy4866,5866
4865,Dummy4865,5865
4864,Dummy4864,5864
4863,Dummy4863,5863
4862,Dummy4862,5862
4861,Dummy4861,5861
4860,Dummy4860,5860
4859,Dummy4859,5859
4858,Dummy4858,5858
4857,Dummy4857,5857
4856,Dummy4856,5856
4855,Dummy4855,5855
4854,Dummy4854,5854
4853,Dummy4853,5853
4852,Dummy4852,5852
4851,Dummy4851,5851
4850,Dummy4850,5850
4849,Dummy4849,5849
4848,Dummy4848,5848
4847,Dummy4847,5847
4846,Dummy4846,5846
4845,Dummy4845,5845
4844,Dummy4844,5844
4843,Dummy4843,5843
4842,Dummy4842,5842
4841,Dummy4841,5841
4840,Dummy4840,5840
4839,Dummy4839,5839
4838,Dummy4838,5838
4837,Dummy4837,5837
4836,Dummy4836,5836
4835,Dummy4835,5835
4834,Dummy4834,5834
4833,Dummy4833,5833
4832,Dummy4832,5832
4831,Dummy4831,5831
4830,Dummy4830,5830
4829,Dummy4829,5829
4828,Dummy4828,5828
4827,Dummy4827,5827
4826,Dummy4826,5826
4825,Dummy4825,5825
4824,Dummy4824,5824
4823,Dummy4823,5823
4822,Dummy4822,5822
4821,Dummy4821,5821
4820,Dummy4820,5820
4819,Dummy4819,5819
4818,Dummy4818,5818
4817,Dummy4817,5817
4816,Dummy4816,5816
4815,Dummy4815,5815
4814,Dummy4814,5814
4813,Dummy4813,5813
4812,Dummy4812,5812
4811,Dummy4811,5811
4810,Dummy4810,5810
4809,Dummy4809,5809
4808,Dummy4808,5808
4807,Dummy4807,5807
4806,Dummy4806,5806
4805,Dummy4805,5805
4804,Dummy4804,5804
4803,Dummy4803,5803
4802,Dummy4802,5802
4801,Dummy4801,5801
4800,Dummy4800,5800
4799,Dummy4799,5799
4798,Dummy4798,5798
4797,Dummy4797,5797
4796,Dummy4796,5796
4795,Dummy4795,5795
4794,Dummy4794,5794
4793,Dummy4793,5793
4792,Dummy4792,5792
4791,Dummy4791,5791
4790,Dummy4790,5790
4789,Dummy4789,5789
4788,Dummy4788,5788
4787,Dummy4787,5787
4786,Dummy4786,5786
4785,Dummy4785,5785
4784,Dummy4784,5784
4783,Dummy4783,5783
4782,Dummy4782,5782
4781,Dummy4781,5781
4780,Dummy4780,5780
4779,Dummy4779,5779
4778,Dummy4778,5778
4777,Dummy4777,5777
4776,Dummy4776,5776
4775,Dummy4775,5775
4774,Dummy4774,5774
4773,Dummy4773,5773
4772,Dummy4772,5772
4771,Dummy4771,5771
4770,Dummy4770,5770
4769,Dummy4769,5769
4768,Dummy4768,5768
4767,Dummy4767,5767
4766,Dummy4766,5766
4765,Dummy4765,5765
4764,Dummy4764,5764
4763,Dummy4763,5763
4762,Dummy4762,5762
4761,Dummy4761,5761
4760,Dummy4760,5760
4759,Dummy4759,5759
4758,Dummy4758,5758
4757,Dummy4757,5757
4756,Dummy4756,5756
4755,Dummy4755,5755
4754,Dummy4754,5754
4753,Dummy4753,5753
4752,Dummy4752,5752
4751,Dummy4751,5751
4750,Dummy4750,5750
4749,Dummy4749,5749
4748,Dummy4748,5748
4747,Dummy4747,5747
4746,Dummy4746,5746
4745,Dummy4745,5745
4744,Dummy4744,5744
4743,Dummy4743,5743
4742,Dummy4742,5742
4741,Dummy4741,5741
4740,Dummy4740,5740
4739,Dummy4739,5739
4738,Dummy4738,5738
4737,Dummy4737,5737
4736,Dummy4736,5736
4735,Dummy4735,5735
4734,Dummy4734,5734
4733,Dummy4733,5733
4732,Dummy4732,5732
4731,Dummy4731,5731
4730,Dummy4730,5730
4729,Dummy4729,5729
4728,Dummy4728,5728
4727,Dummy4727,5727
4726,Dummy4726,5726
4725,Dummy4725,5725
4724,Dummy4724,5724
4723,Dummy4723,5723
4722,Dummy4722,5722
4721,Dummy4721,5721
4720,Dummy4720,5720
4719,Dummy4719,5719
4718,Dummy4718,5718
4717,Dummy4717,5717
4716,Dummy4716,5716
4715,Dummy4715,5715
4714,Dummy4714,5714
4713,Dummy4713,5713
4712,Dummy4712,5712
4711,Dummy4711,5711
4710,Dummy4710,5710
4709,Dummy4709,5709
4708,Dummy4708,5708
4707,Dummy4707,5707
4706,Dummy4706,5706
4705,Dummy4705,5705
4704,Dummy4704,5704
4703,Dummy4703,5703
4702,Dummy4702,5702
4701,Dummy4701,5701
4700,Dummy4700,5700
4699,Dummy4699,5699
4698,Dummy4698,5698
4697,Dummy4697,5697
4696,Dummy4696,5696
4695,Dummy4695,5695
4694,Dummy4694,5694
4693,Dummy4693,5693
4692,Dummy4692,5692
4691,Dummy4691,5691
4690,Dummy4690,5690
4689,Dummy4689,5689
4688,Dummy4688,5688
4687,Dummy4687,5687
4686,Dummy4686,5686
4685,Dummy4685,5685
4684,Dummy4684,5684
4683,Dummy4683,5683
4682,Dummy4682,5682
4681,Dummy4681,5681
4680,Dummy4680,5680
4679,Dummy4679,5679
4678,Dummy4678,5678
4677,Dummy4677,5677
4676,Dummy4676,5676
4675,Dummy4675,5675
4674,Dummy4674,5674
4673,Dummy4673,5673
4672,Dummy4672,5672
4671,Dummy4671,5671
4670,Dummy4670,5670
4669,Dummy4669,5669
4668,Dummy4668,5668
4667,Dummy4667,5667
4666,Dummy4666,5666
4665,Dummy4665,5665
4664,Dummy4664,5664
4663,Dummy4663,5663
4662,Dummy4662,5662
4661,Dummy4661,5661
4660,Dummy4660,5660
4659,Dummy4659,5659
4658,Dummy4658,5658
4657,Dummy4657,5657
4656,Dummy4656,5656
4655,Dummy4655,5655
4654,Dummy4654,5654
4653,Dummy4653,5653
4652,Dummy4652,5652
4651,Dummy4651,5651
4650,Dummy4650,5650
4649,Dummy4649,5649
4648,Dummy4648,5648
4647,Dummy4647,5647
4646,Dummy4646,5646
4645,Dummy4645,5645
4644,Dummy4644,5644
4643,Dummy4643,5643
4642,Dummy4642,5642
4641,Dummy4641,5641
4640,Dummy4640,5640
4639,Dummy4639,5639
4638,Dummy4638,5638
4637,Dummy4637,5637
4636,Dummy4636,5636
4635,Dummy4635,5635
4634,Dummy4634,5634
4633,Dummy4633,5633
4632,Dummy4632,5632
4631,Dummy4631,5631
4630,Dummy4630,5630
4629,Dummy4629,5629
4628,Dummy4628,5628
4627,Dummy4627,5627
4626,Dummy4626,5626
4625,Dummy4625,5625
4624,Dummy4624,5624
4623,Dummy4623,5623
4622,Dummy4622,5622
4621,Dummy4621,5621
4620,Dummy4620,5620
4619,Dummy4619,5619
4618,Dummy4618,5618
4617,Dummy4617,5617
4616,Dummy4616,5616
4615,Dummy4615,5615
4614,Dummy4614,5614
4613,Dummy4613,5613
4612,Dummy4612,5612
4611,Dummy4611,5611
4610,Dummy4610,5610
4609,Dummy4609,5609
4608,Dummy4608,5608
4607,Dummy4607,5607
4606,Dummy4606,5606
4605,Dummy4605,5605
4604,Dummy4604,5604
4603,Dummy4603,5603
4602,Dummy4602,5602
4601,Dummy4601,5601
4600,Dummy4600,5600
4599,Dummy4599,5599
4598,Dummy4598,5598
4597,Dummy4597,5597
4596,Dummy4596,5596
4595,Dummy4595,5595
4594,Dummy4594,5594
4593,Dummy4593,5593
4592,Dummy4592,5592
4591,Dummy4591,5591
4590,Dummy4590,5590
4589,Dummy4589,5589
4588,Dummy4588,5588
4587,Dummy4587,5587
4586,Dummy4586,5586
4585,Dummy4585,5585
4584,Dummy4584,5584
4583,Dummy4583,5583
4582,Dummy4582,5582
4581,Dummy4581,5581
4580,Dummy4580,5580
4579,Dummy4579,5579
4578,Dummy4578,5578
4577,Dummy4577,5577
4576,Dummy4576,5576
4575,Dummy4575,5575
4574,Dummy4574,5574
4573,Dummy4573,5573
4572,Dummy4572,5572
4571,Dummy4571,5571
4570,Dummy4570,5570
4569,Dummy4569,5569
4568,Dummy4568,5568
4567,Dummy4567,5567
4566,Dummy4566,5566
4565,Dummy4565,5565
4564,Dummy4564,5564
4563,Dummy4563,5563
4562,Dummy4562,5562
4561,Dummy4561,5561
4560,Dummy4560,5560
4559,Dummy4559,5559
4558,Dummy4558,5558
4557,Dummy4557,5557
4556,Dummy4556,5556
4555,Dummy4555,5555
4554,Dummy4554,5554
4553,Dummy4553,5553
4552,Dummy4552,5552
4551,Dummy4551,5551
4550,Dummy4550,5550
4549,Dummy4549,5549
4548,Dummy4548,5548
4547,Dummy4547,5547
4546,Dummy4546,5546
4545,Dummy4545,5545
4544,Dummy4544,5544
4543,Dummy4543,5543
4542,Dummy4542,5542
4541,Dummy4541,5541
4540,Dummy4540,5540
4539,Dummy4539,5539
4538,Dummy4538,5538
4537,Dummy4537,5537
4536,Dummy4536,5536
4535,Dummy4535,5535
4534,Dummy4534,5534
4533,Dummy4533,5533
4532,Dummy4532,5532
4531,Dummy4531,5531
4530,Dummy4530,5530
4529,Dummy4529,5529
4528,Dummy4528,5528
4527,Dummy4527,5527
4526,Dummy4526,5526
4525,Dummy4525,5525
4524,Dummy4524,5524
4523,Dummy4523,5523
4522,Dummy4522,5522
4521,Dummy4521,5521
4520,Dummy4520,5520
4519,Dummy4519,5519
4518,Dummy4518,5518
4517,Dummy4517,5517
4516,Dummy4516,5516
4515,Dummy4515,5515
4514,Dummy4514,5514
4513,Dummy4513,5513
4512,Dummy4512,5512
4511,Dummy4511,5511
4510,Dummy4510,5510
4509,Dummy4509,5509
4508,Dummy4508,5508
4507,Dummy4507,5507
4506,Dummy4506,5506
4505,Dummy4505,5505
4504,Dummy4504,5504
4503,Dummy4503,5503
4502,Dummy4502,5502
4501,Dummy4501,5501
4500,Dummy4500,5500
4499,Dummy4499,5499
4498,Dummy4498,5498
4497,Dummy4497,5497
4496,Dummy4496,5496
4495,Dummy4495,5495
4494,Dummy4494,5494
4493,Dummy4493,5493
4492,Dummy4492,5492
4491,Dummy4491,5491
4490,Dummy4490,5490
4489,Dummy4489,5489
4488,Dummy4488,5488
4487,Dummy4487,5487
4486,Dummy4486,5486
4485,Dummy4485,5485
4484,Dummy4484,5484
4483,Dummy4483,5483
4482,Dummy4482,5482
4481,Dummy4481,5481
4480,Dummy4480,5480
4479,Dummy4479,5479
4478,Dummy4478,5478
4477,Dummy4477,5477
4476,Dummy4476,5476
4475,Dummy4475,5475
4474,Dummy4474,5474
4473,Dummy4473,5473
4472,Dummy4472,5472
4471,Dummy4471,5471
4470,Dummy4470,5470
4469,Dummy4469,5469
4468,Dummy4468,5468
4467,Dummy4467,5467
4466,Dummy4466,5466
4465,Dummy4465,5465
4464,Dummy4464,5464
4463,Dummy4463,5463
4462,Dummy4462,5462
4461,Dummy4461,5461
4460,Dummy4460,5460
4459,Dummy4459,5459
4458,Dummy4458,5458
4457,Dummy4457,5457
4456,Dummy4456,5456
4455,Dummy4455,5455
4454,Dummy4454,5454
4453,Dummy4453,5453
4452,Dummy4452,5452
4451,Dummy4451,5451
4450,Dummy4450,5450
4449,Dummy4449,5449
4448,Dummy4448,5448
4447,Dummy4447,5447
4446,Dummy4446,5446
4445,Dummy4445,5445
4444,Dummy4444,5444
4443,Dummy4443,5443
4442,Dummy4442,5442
4441,Dummy4441,5441
4440,Dummy4440,5440
4439,Dummy4439,5439
4438,Dummy4438,5438
4437,Dummy4437,5437
4436,Dummy4436,5436
4435,Dummy4435,5435
4434,Dummy4434,5434
4433,Dummy4433,5433
4432,Dummy4432,5432
4431,Dummy4431,5431
4430,Dummy4430,5430
4429,Dummy4429,5429
4428,Dummy4428,5428
4427,Dummy4427,5427
4426,Dummy4426,5426
4425,Dummy4425,5425
4424,Dummy4424,5424
4423,Dummy4423,5423
4422,Dummy4422,5422
4421,Dummy4421,5421
4420,Dummy4420,5420
4419,Dummy4419,5419
4418,Dummy4418,5418
4417,Dummy4417,5417
4416,Dummy4416,5416
4415,Dummy4415,5415
4414,Dummy4414,5414
4413,Dummy4413,5413
4412,Dummy4412,5412
4411,Dummy4411,5411
4410,Dummy4410,5410
4409,Dummy4409,5409
4408,Dummy4408,5408
4407,Dummy4407,5407
4406,Dummy4406,5406
4405,Dummy4405,5405
4404,Dummy4404,5404
4403,Dummy4403,5403
4402,Dummy4402,5402
4401,Dummy4401,5401
4400,Dummy4400,5400
4399,Dummy4399,5399
4398,Dummy4398,5398
4397,Dummy4397,5397
4396,Dummy4396,5396
4395,Dummy4395,5395
4394,Dummy4394,5394
4393,Dummy4393,5393
4392,Dummy4392,5392
4391,Dummy4391,5391
4390,Dummy4390,5390
4389,Dummy4389,5389
4388,Dummy4388,5388
4387,Dummy4387,5387
4386,Dummy4386,5386
4385,Dummy4385,5385
4384,Dummy4384,5384
4383,Dummy4383,5383
4382,Dummy4382,5382
4381,Dummy4381,5381
4380,Dummy4380,5380
4379,Dummy4379,5379
4378,Dummy4378,5378
4377,Dummy4377,5377
4376,Dummy4376,5376
4375,Dummy4375,5375
4374,Dummy4374,5374
4373,Dummy4373,5373
4372,Dummy4372,5372
4371,Dummy4371,5371
4370,Dummy4370,5370
4369,Dummy4369,5369
4368,Dummy4368,5368
4367,Dummy4367,5367
4366,Dummy4366,5366
4365,Dummy4365,5365
4364,Dummy4364,5364
4363,Dummy4363,5363
4362,Dummy4362,5362
4361,Dummy4361,5361
4360,Dummy4360,5360
4359,Dummy4359,5359
4358,Dummy4358,5358
4357,Dummy4357,5357
4356,Dummy4356,5356
4355,Dummy4355,5355
4354,Dummy4354,5354
4353,Dummy4353,5353
4352,Dummy4352,5352
4351,Dummy4351,5351
4350,Dummy4350,5350
4349,Dummy4349,5349
4348,Dummy4348,5348
4347,Dummy4347,5347
4346,Dummy4346,5346
4345,Dummy4345,5345
4344,Dummy4344,5344
4343,Dummy4343,5343
4342,Dummy4342,5342
4341,Dummy4341,5341
4340,Dummy4340,5340
4339,Dummy4339,5339
4338,Dummy4338,5338
4337,Dummy4337,5337
4336,Dummy4336,5336
4335,Dummy4335,5335
4334,Dummy4334,5334
4333,Dummy4333,5333
4332,Dummy4332,5332
4331,Dummy4331,5331
4330,Dummy4330,5330
4329,Dummy4329,5329
4328,Dummy4328,5328
4327,Dummy4327,5327
4326,Dummy4326,5326
4325,Dummy4325,5325
4324,Dummy4324,5324
4323,Dummy4323,5323
4322,Dummy4322,5322
4321,Dummy4321,5321
4320,Dummy4320,5320
4319,Dummy4319,5319
4318,Dummy4318,5318
4317,Dummy4317,5317
4316,Dummy4316,5316
4315,Dummy4315,5315
4314,Dummy4314,5314
4313,Dummy4313,5313
4312,Dummy4312,5312
4311,Dummy4311,5311
4310,Dummy4310,5310
4309,Dummy4309,5309
4308,Dummy4308,5308
4307,Dummy4307,5307
4306,Dummy4306,5306
4305,Dummy4305,5305
4304,Dummy4304,5304
4303,Dummy4303,5303
4302,Dummy4302,5302
4301,Dummy4301,5301
4300,Dummy4300,5300
4299,Dummy4299,5299
4298,Dummy4298,5298
4297,Dummy4297,5297
4296,Dummy4296,5296
4295,Dummy4295,5295
4294,Dummy4294,5294
4293,Dummy4293,5293
4292,Dummy4292,5292
4291,Dummy4291,5291
4290,Dummy4290,5290
4289,Dummy4289,5289
4288,Dummy4288,5288
4287,Dummy4287,5287
4286,Dummy4286,5286
4285,Dummy4285,5285
4284,Dummy4284,5284
4283,Dummy4283,5283
4282,Dummy4282,5282
4281,Dummy4281,5281
4280,Dummy4280,5280
4279,Dummy4279,5279
4278,Dummy4278,5278
4277,Dummy4277,5277
4276,Dummy4276,5276
4275,Dummy4275,5275
4274,Dummy4274,5274
4273,Dummy4273,5273
4272,Dummy4272,5272
4271,Dummy4271,5271
4270,Dummy4270,5270
4269,Dummy4269,5269
4268,Dummy4268,5268
4267,Dummy4267,5267
4266,Dummy4266,5266
4265,Dummy4265,5265
4264,Dummy4264,5264
4263,Dummy4263,5263
4262,Dummy4262,5262
4261,Dummy4261,5261
4260,Dummy4260,5260
4259,Dummy4259,5259
4258,Dummy4258,5258
4257,Dummy4257,5257
4256,Dummy4256,5256
4255,Dummy4255,5255
4254,Dummy4254,5254
4253,Dummy4253,5253
4252,Dummy4252,5252
4251,Dummy4251,5251
4250,Dummy4250,5250
4249,Dummy4249,5249
4248,Dummy4248,5248
4247,Dummy4247,5247
4246,Dummy4246,5246
4245,Dummy4245,5245
4244,Dummy4244,5244
4243,Dummy4243,5243
4242,Dummy4242,5242
4241,Dummy4241,5241
4240,Dummy4240,5240
4239,Dummy4239,5239
4238,Dummy4238,5238
4237,Dummy4237,5237
4236,Dummy4236,5236
4235,Dummy4235,5235
4234,Dummy4234,5234
4233,Dummy4233,5233
4232,Dummy4232,5232
4231,Dummy4231,5231
4230,Dummy4230,5230
4229,Dummy4229,5229
4228,Dummy4228,5228
4227,Dummy4227,5227
4226,Dummy4226,5226
4225,Dummy4225,5225
4224,Dummy4224,5224
4223,Dummy4223,5223
4222,Dummy4222,5222
4221,Dummy4221,5221
4220,Dummy4220,5220
4219,Dummy4219,5219
4218,Dummy4218,5218
4217,Dummy4217,5217
4216,Dummy4216,5216
4215,Dummy4215,5215
4214,Dummy4214,5214
4213,Dummy4213,5213
4212,Dummy4212,5212
4211,Dummy4211,5211
4210,Dummy4210,5210
4209,Dummy4209,5209
4208,Dummy4208,5208
4207,Dummy4207,5207
4206,Dummy4206,5206
4205,Dummy4205,5205
4204,Dummy4204,5204
4203,Dummy4203,5203
4202,Dummy4202,5202
4201,Dummy4201,5201
4200,Dummy4200,5200
4199,Dummy4199,5199
4198,Dummy4198,5198
4197,Dummy4197,5197
4196,Dummy4196,5196
4195,Dummy4195,5195
4194,Dummy4194,5194
4193,Dummy4193,5193
4192,Dummy4192,5192
4191,Dummy4191,5191
4190,Dummy4190,5190
4189,Dummy4189,5189
4188,Dummy4188,5188
4187,Dummy4187,5187
4186,Dummy4186,5186
4185,Dummy4185,5185
4184,Dummy4184,5184
4183,Dummy4183,5183
4182,Dummy4182,5182
4181,Dummy4181,5181
4180,Dummy4180,5180
4179,Dummy4179,5179
4178,Dummy4178,5178
4177,Dummy4177,5177
4176,Dummy4176,5176
4175,Dummy4175,5175
4174,Dummy4174,5174
4173,Dummy4173,5173
4172,Dummy4172,5172
4171,Dummy4171,5171
4170,Dummy4170,5170
4169,Dummy4169,5169
4168,Dummy4168,5168
4167,Dummy4167,5167
4166,Dummy4166,5166
4165,Dummy4165,5165
4164,Dummy4164,5164
4163,Dummy4163,5163
4162,Dummy4162,5162
4161,Dummy4161,5161
4160,Dummy4160,5160
4159,Dummy4159,5159
4158,Dummy4158,5158
4157,Dummy4157,5157
4156,Dummy4156,5156
4155,Dummy4155,5155
4154,Dummy4154,5154
4153,Dummy4153,5153
4152,Dummy4152,5152
4151,Dummy4151,5151
4150,Dummy4150,5150
4149,Dummy4149,5149
4148,Dummy4148,5148
4147,Dummy4147,5147
4146,Dummy4146,5146
4145,Dummy4145,5145
4144,Dummy4144,5144
4143,Dummy4143,5143
4142,Dummy4142,5142
4141,Dummy4141,5141
4140,Dummy4140,5140
4139,Dummy4139,5139
4138,Dummy4138,5138
4137,Dummy4137,5137
4136,Dummy4136,5136
4135,Dummy4135,5135
4134,Dummy4134,5134
4133,Dummy4133,5133
4132,Dummy4132,5132
4131,Dummy4131,5131
4130,Dummy4130,5130
4129,Dummy4129,5129
4128,Dummy4128,5128
4127,Dummy4127,5127
4126,Dummy4126,5126
4125,Dummy4125,5125
4124,Dummy4124,5124
4123,Dummy4123,5123
4122,Dummy4122,5122
4121,Dummy4121,5121
4120,Dummy4120,5120
4119,Dummy4119,5119
4118,Dummy4118,5118
4117,Dummy4117,5117
4116,Dummy4116,5116
4115,Dummy4115,5115
4114,Dummy4114,5114
4113,Dummy4113,5113
4112,Dummy4112,5112
4111,Dummy4111,5111
4110,Dummy4110,5110
4109,Dummy4109,5109
4108,Dummy4108,5108
4107,Dummy4107,5107
4106,Dummy4106,5106
4105,Dummy4105,5105
4104,Dummy4104,5104
4103,Dummy4103,5103
4102,Dummy4102,5102
4101,Dummy4101,5101
4100,Dummy4100,5100
4099,Dummy4099,5099
4098,Dummy4098,5098
4097,Dummy4097,5097
4096,Dummy4096,5096
4095,Dummy4095,5095
4094,Dummy4094,5094
4093,Dummy4093,5093
4092,Dummy4092,5092
4091,Dummy4091,5091
4090,Dummy4090,5090
4089,Dummy4089,5089
4088,Dummy4088,5088
4087,Dummy4087,5087
4086,Dummy4086,5086
4085,Dummy4085,5085
4084,Dummy4084,5084
4083,Dummy4083,5083
4082,Dummy4082,5082
4081,Dummy4081,5081
4080,Dummy4080,5080
4079,Dummy4079,5079
4078,Dummy4078,5078
4077,Dummy4077,5077
4076,Dummy4076,5076
4075,Dummy4075,5075
4074,Dummy4074,5074
4073,Dummy4073,5073
4072,Dummy4072,5072
4071,Dummy4071,5071
4070,Dummy4070,5070
4069,Dummy4069,5069
4068,Dummy4068,5068
4067,Dummy4067,5067
4066,Dummy4066,5066
4065,Dummy4065,5065
4064,Dummy4064,5064
4063,Dummy4063,5063
4062,Dummy4062,5062
4061,Dummy4061,5061
4060,Dummy4060,5060
4059,Dummy4059,5059
4058,Dummy4058,5058
4057,Dummy4057,5057
4056,Dummy4056,5056
4055,Dummy4055,5055
4054,Dummy4054,5054
4053,Dummy4053,5053
4052,Dummy4052,5052
4051,Dummy4051,5051
4050,Dummy4050,5050
4049,Dummy4049,5049
4048,Dummy4048,5048
4047,Dummy4047,5047
4046,Dummy4046,5046
4045,Dummy4045,5045
4044,Dummy4044,5044
4043,Dummy4043,5043
4042,Dummy4042,5042
4041,Dummy4041,5041
4040,Dummy4040,5040
4039,Dummy4039,5039
4038,Dummy4038,5038
4037,Dummy4037,5037
4036,Dummy4036,5036
4035,Dummy4035,5035
4034,Dummy4034,5034
4033,Dummy4033,5033
4032,Dummy4032,5032
4031,Dummy4031,5031
4030,Dummy4030,5030
4029,Dummy4029,5029
4028,Dummy4028,5028
4027,Dummy4027,5027
4026,Dummy4026,5026
4025,Dummy4025,5025
4024,Dummy4024,5024
4023,Dummy4023,5023
4022,Dummy4022,5022
4021,Dummy4021,5021
4020,Dummy4020,5020
4019,Dummy4019,5019
4018,Dummy4018,5018
4017,Dummy4017,5017
4016,Dummy4016,5016
4015,Dummy4015,5015
4014,Dummy4014,5014
4013,Dummy4013,5013
4012,Dummy4012,5012
4011,Dummy4011,5011
4010,Dummy4010,5010
4009,Dummy4009,5009
4008,Dummy4008,5008
4007,Dummy4007,5007
4006,Dummy4006,5006
4005,Dummy4005,5005
4004,Dummy4004,5004
4003,Dummy4003,5003
4002,Dummy4002,5002
4001,Dummy4001,5001
4000,Dummy4000,5000
3999,Dummy3999,4999
3998,Dummy3998,4998
3997,Dummy3997,4997
3996,Dummy3996,4996
3995,Dummy3995,4995
3994,Dummy3994,4994
3993,Dummy3993,4993
3992,Dummy3992,4992
3991,Dummy3991,4991
3990,Dummy3990,4990
3989,Dummy3989,4989
3988,Dummy3988,4988
3987,Dummy3987,4987
3986,Dummy3986,4986
3985,Dummy3985,4985
3984,Dummy3984,4984
3983,Dummy3983,4983
3982,Dummy3982,4982
3981,Dummy3981,4981
3980,Dummy3980,4980
3979,Dummy3979,4979
3978,Dummy3978,4978
3977,Dummy3977,4977
3976,Dummy3976,4976
3975,Dummy3975,4975
3974,Dummy3974,4974
3973,Dummy3973,4973
3972,Dummy3972,4972
3971,Dummy3971,4971
3970,Dummy3970,4970
3969,Dummy3969,4969
3968,Dummy3968,4968
3967,Dummy3967,4967
3966,Dummy3966,4966
3965,Dummy3965,4965
3964,Dummy3964,4964
3963,Dummy3963,4963
3962,Dummy3962,4962
3961,Dummy3961,4961
3960,Dummy3960,4960
3959,Dummy3959,4959
3958,Dummy3958,4958
3957,Dummy3957,4957
3956,Dummy3956,4956
3955,Dummy3955,4955
3954,Dummy3954,4954
3953,Dummy3953,4953
3952,Dummy3952,4952
3951,Dummy3951,4951
3950,Dummy3950,4950
3949,Dummy3949,4949
3948,Dummy3948,4948
3947,Dummy3947,4947
3946,Dummy3946,4946
3945,Dummy3945,4945
3944,Dummy3944,4944
3943,Dummy3943,4943
3942,Dummy3942,4942
3941,Dummy3941,4941
3940,Dummy3940,4940
3939,Dummy3939,4939
3938,Dummy3938,4938
3937,Dummy3937,4937
3936,Dummy3936,4936
3935,Dummy3935,4935
3934,Dummy3934,4934
3933,Dummy3933,4933
3932,Dummy3932,4932
3931,Dummy3931,4931
3930,Dummy3930,4930
3929,Dummy3929,4929
3928,Dummy3928,4928
3927,Dummy3927,4927
3926,Dummy3926,4926
3925,Dummy3925,4925
3924,Dummy3924,4924
3923,Dummy3923,4923
3922,Dummy3922,4922
3921,Dummy3921,4921
3920,Dummy3920,4920
3919,Dummy3919,4919
3918,Dummy3918,4918
3917,Dummy3917,4917
3916,Dummy3916,4916
3915,Dummy3915,4915
3914,Dummy3914,4914
3913,Dummy3913,4913
3912,Dummy3912,4912
3911,Dummy3911,4911
3910,Dummy3910,4910
3909,Dummy3909,4909
3908,Dummy3908,4908
3907,Dummy3907,4907
3906,Dummy3906,4906
3905,Dummy3905,4905
3904,Dummy3904,4904
3903,Dummy3903,4903
3902,Dummy3902,4902
3901,Dummy3901,4901
3900,Dummy3900,4900
3899,Dummy3899,4899
3898,Dummy3898,4898
3897,Dummy3897,4897
3896,Dummy3896,4896
3895,Dummy3895,4895
3894,Dummy3894,4894
3893,Dummy3893,4893
3892,Dummy3892,4892
3891,Dummy3891,4891
3890,Dummy3890,4890
3889,Dummy3889,4889
3888,Dummy3888,4888
3887,Dummy3887,4887
3886,Dummy3886,4886
3885,Dummy3885,4885
3884,Dummy3884,4884
3883,Dummy3883,4883
3882,Dummy3882,4882
3881,Dummy3881,4881
3880,Dummy3880,4880
3879,Dummy3879,4879
3878,Dummy3878,4878
3877,Dummy3877,4877
3876,Dummy3876,4876
3875,Dummy3875,4875
3874,Dummy3874,4874
3873,Dummy3873,4873
3872,Dummy3872,4872
3871,Dummy3871,4871
3870,Dummy3870,4870
3869,Dummy3869,4869
3868,Dummy3868,4868
3867,Dummy3867,4867
3866,Dummy3866,4866
3865,Dummy3865,4865
3864,Dummy3864,4864
3863,Dummy3863,4863
3862,Dummy3862,4862
3861,Dummy3861,4861
3860,Dummy3860,4860
3859,Dummy3859,4859
3858,Dummy3858,4858
3857,Dummy3857,4857
3856,Dummy3856,4856
3855,Dummy3855,4855
3854,Dummy3854,4854
3853,Dummy3853,4853
3852,Dummy3852,4852
3851,Dummy3851,4851
3850,Dummy3850,4850
3849,Dummy3849,4849
3848,Dummy3848,4848
3847,Dummy3847,4847
3846,Dummy3846,4846
3845,Dummy3845,4845
3844,Dummy3844,4844
3843,Dummy3843,4843
3842,Dummy3842,4842
3841,Dummy3841,4841
3840,Dummy3840,4840
3839,Dummy3839,4839
3838,Dummy3838,4838
3837,Dummy3837,4837
3836,Dummy3836,4836
3835,Dummy3835,4835
3834,Dummy3834,4834
3833,Dummy3833,4833
3832,Dummy3832,4832
3831,Dummy3831,4831
3830,Dummy3830,4830
3829,Dummy3829,4829
3828,Dummy3828,4828
3827,Dummy3827,4827
3826,Dummy3826,4826
3825,Dummy3825,4825
3824,Dummy3824,4824
3823,Dummy3823,4823
3822,Dummy3822,4822
3821,Dummy3821,4821
3820,Dummy3820,4820
3819,Dummy3819,4819
3818,Dummy3818,4818
3817,Dummy3817,4817
3816,Dummy3816,4816
3815,Dummy3815,4815
3814,Dummy3814,4814
3813,Dummy3813,4813
3812,Dummy3812,4812
3811,Dummy3811,4811
3810,Dummy3810,4810
3809,Dummy3809,4809
3808,Dummy3808,4808
3807,Dummy3807,4807
3806,Dummy3806,4806
3805,Dummy3805,4805
3804,Dummy3804,4804
3803,Dummy3803,4803
3802,Dummy3802,4802
3801,Dummy3801,4801
3800,Dummy3800,4800
3799,Dummy3799,4799
3798,Dummy3798,4798
3797,Dummy3797,4797
3796,Dummy3796,4796
3795,Dummy3795,4795
3794,Dummy3794,4794
3793,Dummy3793,4793
3792,Dummy3792,4792
3791,Dummy3791,4791
3790,Dummy3790,4790
3789,Dummy3789,4789
3788,Dummy3788,4788
3787,Dummy3787,4787
3786,Dummy3786,4786
3785,Dummy3785,4785
3784,Dummy3784,4784
3783,Dummy3783,4783
3782,Dummy3782,4782
3781,Dummy3781,4781
3780,Dummy3780,4780
3779,Dummy3779,4779
3778,Dummy3778,4778
3777,Dummy3777,4777
3776,Dummy3776,4776
3775,Dummy3775,4775
3774,Dummy3774,4774
3773,Dummy3773,4773
3772,Dummy3772,4772
3771,Dummy3771,4771
3770,Dummy3770,4770
3769,Dummy3769,4769
3768,Dummy3768,4768
3767,Dummy3767,4767
3766,Dummy3766,4766
3765,Dummy3765,4765
3764,Dummy3764,4764
3763,Dummy3763,4763
3762,Dummy3762,4762
3761,Dummy3761,4761
3760,Dummy3760,4760
3759,Dummy3759,4759
3758,Dummy3758,4758
3757,Dummy3757,4757
3756,Dummy3756,4756
3755,Dummy3755,4755
3754,Dummy3754,4754
3753,Dummy3753,4753
3752,Dummy3752,4752
3751,Dummy3751,4751
3750,Dummy3750,4750
3749,Dummy3749,4749
3748,Dummy3748,4748
3747,Dummy3747,4747
3746,Dummy3746,4746
3745,Dummy3745,4745
3744,Dummy3744,4744
3743,Dummy3743,4743
3742,Dummy3742,4742
3741,Dummy3741,4741
3740,Dummy3740,4740
3739,Dummy3739,4739
3738,Dummy3738,4738
3737,Dummy3737,4737
3736,Dummy3736,4736
3735,Dummy3735,4735
3734,Dummy3734,4734
3733,Dummy3733,4733
3732,Dummy3732,4732
3731,Dummy3731,4731
3730,Dummy3730,4730
3729,Dummy3729,4729
3728,Dummy3728,4728
3727,Dummy3727,4727
3726,Dummy3726,4726
3725,Dummy3725,4725
3724,Dummy3724,4724
3723,Dummy3723,4723
3722,Dummy3722,4722
3721,Dummy3721,4721
3720,Dummy3720,4720
3719,Dummy3719,4719
3718,Dummy3718,4718
3717,Dummy3717,4717
3716,Dummy3716,4716
3715,Dummy3715,4715
3714,Dummy3714,4714
3713,Dummy3713,4713
3712,Dummy3712,4712
3711,Dummy3711,4711
3710,Dummy3710,4710
3709,Dummy3709,4709
3708,Dummy3708,4708
3707,Dummy3707,4707
3706,Dummy3706,4706
3705,Dummy3705,4705
3704,Dummy3704,4704
3703,Dummy3703,4703
3702,Dummy3702,4702
3701,Dummy3701,4701
3700,Dummy3700,4700
3699,Dummy3699,4699
3698,Dummy3698,4698
3697,Dummy3697,4697
3696,Dummy3696,4696
3695,Dummy3695,4695
3694,Dummy3694,4694
3693,Dummy3693,4693
3692,Dummy3692,4692
3691,Dummy3691,4691
3690,Dummy3690,4690
3689,Dummy3689,4689
3688,Dummy3688,4688
3687,Dummy3687,4687
3686,Dummy3686,4686
3685,Dummy3685,4685
3684,Dummy3684,4684
3683,Dummy3683,4683
3682,Dummy3682,4682
3681,Dummy3681,4681
3680,Dummy3680,4680
3679,Dummy3679,4679
3678,Dummy3678,4678
3677,Dummy3677,4677
3676,Dummy3676,4676
3675,Dummy3675,4675
3674,Dummy3674,4674
3673,Dummy3673,4673
3672,Dummy3672,4672
3671,Dummy3671,4671
3670,Dummy3670,4670
3669,Dummy3669,4669
3668,Dummy3668,4668
3667,Dummy3667,4667
3666,Dummy3666,4666
3665,Dummy3665,4665
3664,Dummy3664,4664
3663,Dummy3663,4663
3662,Dummy3662,4662
3661,Dummy3661,4661
3660,Dummy3660,4660
3659,Dummy3659,4659
3658,Dummy3658,4658
3657,Dummy3657,4657
3656,Dummy3656,4656
3655,Dummy3655,4655
3654,Dummy3654,4654
3653,Dummy3653,4653
3652,Dummy3652,4652
3651,Dummy3651,4651
3650,Dummy3650,4650
3649,Dummy3649,4649
3648,Dummy3648,4648
3647,Dummy3647,4647
3646,Dummy3646,4646
3645,Dummy3645,4645
3644,Dummy3644,4644
3643,Dummy3643,4643
3642,Dummy3642,4642
3641,Dummy3641,4641
3640,Dummy3640,4640
3639,Dummy3639,4639
3638,Dummy3638,4638
3637,Dummy3637,4637
3636,Dummy3636,4636
3635,Dummy3635,4635
3634,Dummy3634,4634
3633,Dummy3633,4633
3632,Dummy3632,4632
3631,Dummy3631,4631
3630,Dummy3630,4630
3629,Dummy3629,4629
3628,Dummy3628,4628
3627,Dummy3627,4627
3626,Dummy3626,4626
3625,Dummy3625,4625
3624,Dummy3624,4624
3623,Dummy3623,4623
3622,Dummy3622,4622
3621,Dummy3621,4621
3620,Dummy3620,4620
3619,Dummy3619,4619
3618,Dummy3618,4618
3617,Dummy3617,4617
3616,Dummy3616,4616
3615,Dummy3615,4615
3614,Dummy3614,4614
3613,Dummy3613,4613
3612,Dummy3612,4612
3611,Dummy3611,4611
3610,Dummy3610,4610
3609,Dummy3609,4609
3608,Dummy3608,4608
3607,Dummy3607,4607
3606,Dummy3606,4606
3605,Dummy3605,4605
3604,Dummy3604,4604
3603,Dummy3603,4603
3602,Dummy3602,4602
3601,Dummy3601,4601
3600,Dummy3600,4600
3599,Dummy3599,4599
3598,Dummy3598,4598
3597,Dummy3597,4597
3596,Dummy3596,4596
3595,Dummy3595,4595
3594,Dummy3594,4594
3593,Dummy3593,4593
3592,Dummy3592,4592
3591,Dummy3591,4591
3590,Dummy3590,4590
3589,Dummy3589,4589
3588,Dummy3588,4588
3587,Dummy3587,4587
3586,Dummy3586,4586
3585,Dummy3585,4585
3584,Dummy3584,4584
3583,Dummy3583,4583
3582,Dummy3582,4582
3581,Dummy3581,4581
3580,Dummy3580,4580
3579,Dummy3579,4579
3578,Dummy3578,4578
3577,Dummy3577,4577
3576,Dummy3576,4576
3575,Dummy3575,4575
3574,Dummy3574,4574
3573,Dummy3573,4573
3572,Dummy3572,4572
3571,Dummy3571,4571
3570,Dummy3570,4570
3569,Dummy3569,4569
3568,Dummy3568,4568
3567,Dummy3567,4567
3566,Dummy3566,4566
3565,Dummy3565,4565
3564,Dummy3564,4564
3563,Dummy3563,4563
3562,Dummy3562,4562
3561,Dummy3561,4561
3560,Dummy3560,4560
3559,Dummy3559,4559
3558,Dummy3558,4558
3557,Dummy3557,4557
3556,Dummy3556,4556
3555,Dummy3555,4555
3554,Dummy3554,4554
3553,Dummy3553,4553
3552,Dummy3552,4552
3551,Dummy3551,4551
3550,Dummy3550,4550
3549,Dummy3549,4549
3548,Dummy3548,4548
3547,Dummy3547,4547
3546,Dummy3546,4546
3545,Dummy3545,4545
3544,Dummy3544,4544
3543,Dummy3543,4543
3542,Dummy3542,4542
3541,Dummy3541,4541
3540,Dummy3540,4540
3539,Dummy3539,4539
3538,Dummy3538,4538
3537,Dummy3537,4537
3536,Dummy3536,4536
3535,Dummy3535,4535
3534,Dummy3534,4534
3533,Dummy3533,4533
3532,Dummy3532,4532
3531,Dummy3531,4531
3530,Dummy3530,4530
3529,Dummy3529,4529
3528,Dummy3528,4528
3527,Dummy3527,4527
3526,Dummy3526,4526
3525,Dummy3525,4525
3524,Dummy3524,4524
3523,Dummy3523,4523
3522,Dummy3522,4522
3521,Dummy3521,4521
3520,Dummy3520,4520
3519,Dummy3519,4519
3518,Dummy3518,4518
3517,Dummy3517,4517
3516,Dummy3516,4516
3515,Dummy3515,4515
3514,Dummy3514,4514
3513,Dummy3513,4513
3512,Dummy3512,4512
3511,Dummy3511,4511
3510,Dummy3510,4510
3509,Dummy3509,4509
3508,Dummy3508,4508
3507,Dummy3507,4507
3506,Dummy3506,4506
3505,Dummy3505,4505
3504,Dummy3504,4504
3503,Dummy3503,4503
3502,Dummy3502,4502
3501,Dummy3501,4501
3500,Dummy3500,4500
3499,Dummy3499,4499
3498,Dummy3498,4498
3497,Dummy3497,4497
3496,Dummy3496,4496
3495,Dummy3495,4495
3494,Dummy3494,4494
3493,Dummy3493,4493
3492,Dummy3492,4492
3491,Dummy3491,4491
3490,Dummy3490,4490
3489,Dummy3489,4489
3488,Dummy3488,4488
3487,Dummy3487,4487
3486,Dummy3486,4486
3485,Dummy3485,4485
3484,Dummy3484,4484
3483,Dummy3483,4483
3482,Dummy3482,4482
3481,Dummy3481,4481
3480,Dummy3480,4480
3479,Dummy3479,4479
3478,Dummy3478,4478
3477,Dummy3477,4477
3476,Dummy3476,4476
3475,Dummy3475,4475
3474,Dummy3474,4474
3473,Dummy3473,4473
3472,Dummy3472,4472
3471,Dummy3471,4471
3470,Dummy3470,4470
3469,Dummy3469,4469
3468,Dummy3468,4468
3467,Dummy3467,4467
3466,Dummy3466,4466
3465,Dummy3465,4465
3464,Dummy3464,4464
3463,Dummy3463,4463
3462,Dummy3462,4462
3461,Dummy3461,4461
3460,Dummy3460,4460
3459,Dummy3459,4459
3458,Dummy3458,4458
3457,Dummy3457,4457
3456,Dummy3456,4456
3455,Dummy3455,4455
3454,Dummy3454,4454
3453,Dummy3453,4453
3452,Dummy3452,4452
3451,Dummy3451,4451
3450,Dummy3450,4450
3449,Dummy3449,4449
3448,Dummy3448,4448
3447,Dummy3447,4447
3446,Dummy3446,4446
3445,Dummy3445,4445
3444,Dummy3444,4444
3443,Dummy3443,4443
3442,Dummy3442,4442
3441,Dummy3441,4441
3440,Dummy3440,4440
3439,Dummy3439,4439
3438,Dummy3438,4438
3437,Dummy3437,4437
3436,Dummy3436,4436
3435,Dummy3435,4435
3434,Dummy3434,4434
3433,Dummy3433,4433
3432,Dummy3432,4432
3431,Dummy3431,4431
3430,Dummy3430,4430
3429,Dummy3429,4429
3428,Dummy3428,4428
3427,Dummy3427,4427
3426,Dummy3426,4426
3425,Dummy3425,4425
3424,Dummy3424,4424
3423,Dummy3423,4423
3422,Dummy3422,4422
3421,Dummy3421,4421
3420,Dummy3420,4420
3419,Dummy3419,4419
3418,Dummy3418,4418
3417,Dummy3417,4417
3416,Dummy3416,4416
3415,Dummy3415,4415
3414,Dummy3414,4414
3413,Dummy3413,4413
3412,Dummy3412,4412
3411,Dummy3411,4411
3410,Dummy3410,4410
3409,Dummy3409,4409
3408,Dummy3408,4408
3407,Dummy3407,4407
3406,Dummy3406,4406
3405,Dummy3405,4405
3404,Dummy3404,4404
3403,Dummy3403,4403
3402,Dummy3402,4402
3401,Dummy3401,4401
3400,Dummy3400,4400
3399,Dummy3399,4399
3398,Dummy3398,4398
3397,Dummy3397,4397
3396,Dummy3396,4396
3395,Dummy3395,4395
3394,Dummy3394,4394
3393,Dummy3393,4393
3392,Dummy3392,4392
3391,Dummy3391,4391
3390,Dummy3390,4390
3389,Dummy3389,4389
3388,Dummy3388,4388
3387,Dummy3387,4387
3386,Dummy3386,4386
3385,Dummy3385,4385
3384,Dummy3384,4384
3383,Dummy3383,4383
3382,Dummy3382,4382
3381,Dummy3381,4381
3380,Dummy3380,4380
3379,Dummy3379,4379
3378,Dummy3378,4378
3377,Dummy3377,4377
3376,Dummy3376,4376
3375,Dummy3375,4375
3374,Dummy3374,4374
3373,Dummy3373,4373
3372,Dummy3372,4372
3371,Dummy3371,4371
3370,Dummy3370,4370
3369,Dummy3369,4369
3368,Dummy3368,4368
3367,Dummy3367,4367
3366,Dummy3366,4366
3365,Dummy3365,4365
3364,Dummy3364,4364
3363,Dummy3363,4363
3362,Dummy3362,4362
3361,Dummy3361,4361
3360,Dummy3360,4360
3359,Dummy3359,4359
3358,Dummy3358,4358
3357,Dummy3357,4357
3356,Dummy3356,4356
3355,Dummy3355,4355
3354,Dummy3354,4354
3353,Dummy3353,4353
3352,Dummy3352,4352
3351,Dummy3351,4351
3350,Dummy3350,4350
3349,Dummy3349,4349
3348,Dummy3348,4348
3347,Dummy3347,4347
3346,Dummy3346,4346
3345,Dummy3345,4345
3344,Dummy3344,4344
3343,Dummy3343,4343
3342,Dummy3342,4342
3341,Dummy3341,4341
3340,Dummy3340,4340
3339,Dummy3339,4339
3338,Dummy3338,4338
3337,Dummy3337,4337
3336,Dummy3336,4336
3335,Dummy3335,4335
3334,Dummy3334,4334
3333,Dummy3333,4333
3332,Dummy3332,4332
3331,Dummy3331,4331
3330,Dummy3330,4330
3329,Dummy3329,4329
3328,Dummy3328,4328
3327,Dummy3327,4327
3326,Dummy3326,4326
3325,Dummy3325,4325
3324,Dummy3324,4324
3323,Dummy3323,4323
3322,Dummy3322,4322
3321,Dummy3321,4321
3320,Dummy3320,4320
3319,Dummy3319,4319
3318,Dummy3318,4318
3317,Dummy3317,4317
3316,Dummy3316,4316
3315,Dummy3315,4315
3314,Dummy3314,4314
3313,Dummy3313,4313
3312,Dummy3312,4312
3311,Dummy3311,4311
3310,Dummy3310,4310
3309,Dummy3309,4309
3308,Dummy3308,4308
3307,Dummy3307,4307
3306,Dummy3306,4306
3305,Dummy3305,4305
3304,Dummy3304,4304
3303,Dummy3303,4303
3302,Dummy3302,4302
3301,Dummy3301,4301
3300,Dummy3300,4300
3299,Dummy3299,4299
3298,Dummy3298,4298
3297,Dummy3297,4297
3296,Dummy3296,4296
3295,Dummy3295,4295
3294,Dummy3294,4294
3293,Dummy3293,4293
3292,Dummy3292,4292
3291,Dummy3291,4291
3290,Dummy3290,4290
3289,Dummy3289,4289
3288,Dummy3288,4288
3287,Dummy3287,4287
3286,Dummy3286,4286
3285,Dummy3285,4285
3284,Dummy3284,4284
3283,Dummy3283,4283
3282,Dummy3282,4282
3281,Dummy3281,4281
3280,Dummy3280,4280
3279,Dummy3279,4279
3278,Dummy3278,4278
3277,Dummy3277,4277
3276,Dummy3276,4276
3275,Dummy3275,4275
3274,Dummy3274,4274
3273,Dummy3273,4273
3272,Dummy3272,4272
3271,Dummy3271,4271
3270,Dummy3270,4270
3269,Dummy3269,4269
3268,Dummy3268,4268
3267,Dummy3267,4267
3266,Dummy3266,4266
3265,Dummy3265,4265
3264,Dummy3264,4264
3263,Dummy3263,4263
3262,Dummy3262,4262
3261,Dummy3261,4261
3260,Dummy3260,4260
3259,Dummy3259,4259
3258,Dummy3258,4258
3257,Dummy3257,4257
3256,Dummy3256,4256
3255,Dummy3255,4255
3254,Dummy3254,4254
3253,Dummy3253,4253
3252,Dummy3252,4252
3251,Dummy3251,4251
3250,Dummy3250,4250
3249,Dummy3249,4249
3248,Dummy3248,4248
3247,Dummy3247,4247
3246,Dummy3246,4246
3245,Dummy3245,4245
3244,Dummy3244,4244
3243,Dummy3243,4243
3242,Dummy3242,4242
3241,Dummy3241,4241
3240,Dummy3240,4240
3239,Dummy3239,4239
3238,Dummy3238,4238
3237,Dummy3237,4237
3236,Dummy3236,4236
3235,Dummy3235,4235
3234,Dummy3234,4234
3233,Dummy3233,4233
3232,Dummy3232,4232
3231,Dummy3231,4231
3230,Dummy3230,4230
3229,Dummy3229,4229
3228,Dummy3228,4228
3227,Dummy3227,4227
3226,Dummy3226,4226
3225,Dummy3225,4225
3224,Dummy3224,4224
3223,Dummy3223,4223
3222,Dummy3222,4222
3221,Dummy3221,4221
3220,Dummy3220,4220
3219,Dummy3219,4219
3218,Dummy3218,4218
3217,Dummy3217,4217
3216,Dummy3216,4216
3215,Dummy3215,4215
3214,Dummy3214,4214
3213,Dummy3213,4213
3212,Dummy3212,4212
3211,Dummy3211,4211
3210,Dummy3210,4210
3209,Dummy3209,4209
3208,Dummy3208,4208
3207,Dummy3207,4207
3206,Dummy3206,4206
3205,Dummy3205,4205
3204,Dummy3204,4204
3203,Dummy3203,4203
3202,Dummy3202,4202
3201,Dummy3201,4201
3200,Dummy3200,4200
3199,Dummy3199,4199
3198,Dummy3198,4198
3197,Dummy3197,4197
3196,Dummy3196,4196
3195,Dummy3195,4195
3194,Dummy3194,4194
3193,Dummy3193,4193
3192,Dummy3192,4192
3191,Dummy3191,4191
3190,Dummy3190,4190
3189,Dummy3189,4189
3188,Dummy3188,4188
3187,Dummy3187,4187
3186,Dummy3186,4186
3185,Dummy3185,4185
3184,Dummy3184,4184
3183,Dummy3183,4183
3182,Dummy3182,4182
3181,Dummy3181,4181
3180,Dummy3180,4180
3179,Dummy3179,4179
3178,Dummy3178,4178
3177,Dummy3177,4177
3176,Dummy3176,4176
3175,Dummy3175,4175
3174,Dummy3174,4174
3173,Dummy3173,4173
3172,Dummy3172,4172
3171,Dummy3171,4171
3170,Dummy3170,4170
3169,Dummy3169,4169
3168,Dummy3168,4168
3167,Dummy3167,4167
3166,Dummy3166,4166
3165,Dummy3165,4165
3164,Dummy3164,4164
3163,Dummy3163,4163
3162,Dummy3162,4162
3161,Dummy3161,4161
3160,Dummy3160,4160
3159,Dummy3159,4159
3158,Dummy3158,4158
3157,Dummy3157,4157
3156,Dummy3156,4156
3155,Dummy3155,4155
3154,Dummy3154,4154
3153,Dummy3153,4153
3152,Dummy3152,4152
3151,Dummy3151,4151
3150,Dummy3150,4150
3149,Dummy3149,4149
3148,Dummy3148,4148
3147,Dummy3147,4147
3146,Dummy3146,4146
3145,Dummy3145,4145
3144,Dummy3144,4144
3143,Dummy3143,4143
3142,Dummy3142,4142
3141,Dummy3141,4141
3140,Dummy3140,4140
3139,Dummy3139,4139
3138,Dummy3138,4138
3137,Dummy3137,4137
3136,Dummy3136,4136
3135,Dummy3135,4135
3134,Dummy3134,4134
3133,Dummy3133,4133
3132,Dummy3132,4132
3131,Dummy3131,4131
3130,Dummy3130,4130
3129,Dummy3129,4129
3128,Dummy3128,4128
3127,Dummy3127,4127
3126,Dummy3126,4126
3125,Dummy3125,4125
3124,Dummy3124,4124
3123,Dummy3123,4123
3122,Dummy3122,4122
3121,Dummy3121,4121
3120,Dummy3120,4120
3119,Dummy3119,4119
3118,Dummy3118,4118
3117,Dummy3117,4117
3116,Dummy3116,4116
3115,Dummy3115,4115
3114,Dummy3114,4114
3113,Dummy3113,4113
3112,Dummy3112,4112
3111,Dummy3111,4111
3110,Dummy3110,4110
3109,Dummy3109,4109
3108,Dummy3108,4108
3107,Dummy3107,4107
3106,Dummy3106,4106
3105,Dummy3105,4105
3104,Dummy3104,4104
3103,Dummy3103,4103
3102,Dummy3102,4102
3101,Dummy3101,4101
3100,Dummy3100,4100
3099,Dummy3099,4099
3098,Dummy3098,4098
3097,Dummy3097,4097
3096,Dummy3096,4096
3095,Dummy3095,4095
3094,Dummy3094,4094
3093,Dummy3093,4093
3092,Dummy3092,4092
3091,Dummy3091,4091
3090,Dummy3090,4090
3089,Dummy3089,4089
3088,Dummy3088,4088
3087,Dummy3087,4087
3086,Dummy3086,4086
3085,Dummy3085,4085
3084,Dummy3084,4084
3083,Dummy3083,4083
3082,Dummy3082,4082
3081,Dummy3081,4081
3080,Dummy3080,4080
3079,Dummy3079,4079
3078,Dummy3078,4078
3077,Dummy3077,4077
3076,Dummy3076,4076
3075,Dummy3075,4075
3074,Dummy3074,4074
3073,Dummy3073,4073
3072,Dummy3072,4072
3071,Dummy3071,4071
3070,Dummy3070,4070
3069,Dummy3069,4069
3068,Dummy3068,4068
3067,Dummy3067,4067
3066,Dummy3066,4066
3065,Dummy3065,4065
3064,Dummy3064,4064
3063,Dummy3063,4063
3062,Dummy3062,4062
3061,Dummy3061,4061
3060,Dummy3060,4060
3059,Dummy3059,4059
3058,Dummy3058,4058
3057,Dummy3057,4057
3056,Dummy3056,4056
3055,Dummy3055,4055
3054,Dummy3054,4054
3053,Dummy3053,4053
3052,Dummy3052,4052
3051,Dummy3051,4051
3050,Dummy3050,4050
3049,Dummy3049,4049
3048,Dummy3048,4048
3047,Dummy3047,4047
3046,Dummy3046,4046
3045,Dummy3045,4045
3044,Dummy3044,4044
3043,Dummy3043,4043
3042,Dummy3042,4042
3041,Dummy3041,4041
3040,Dummy3040,4040
3039,Dummy3039,4039
3038,Dummy3038,4038
3037,Dummy3037,4037
3036,Dummy3036,4036
3035,Dummy3035,4035
3034,Dummy3034,4034
3033,Dummy3033,4033
3032,Dummy3032,4032
3031,Dummy3031,4031
3030,Dummy3030,4030
3029,Dummy3029,4029
3028,Dummy3028,4028
3027,Dummy3027,4027
3026,Dummy3026,4026
3025,Dummy3025,4025
3024,Dummy3024,4024
3023,Dummy3023,4023
3022,Dummy3022,4022
3021,Dummy3021,4021
3020,Dummy3020,4020
3019,Dummy3019,4019
3018,Dummy3018,4018
3017,Dummy3017,4017
3016,Dummy3016,4016
3015,Dummy3015,4015
3014,Dummy3014,4014
3013,Dummy3013,4013
3012,Dummy3012,4012
3011,Dummy3011,4011
3010,Dummy3010,4010
3009,Dummy3009,4009
3008,Dummy3008,4008
3007,Dummy3007,4007
3006,Dummy3006,4006
3005,Dummy3005,4005
3004,Dummy3004,4004
3003,Dummy3003,4003
3002,Dummy3002,4002
3001,Dummy3001,4001
3000,Dummy3000,4000
2999,Dummy2999,3999
2998,Dummy2998,3998
2997,Dummy2997,3997
2996,Dummy2996,3996
2995,Dummy2995,3995
2994,Dummy2994,3994
2993,Dummy2993,3993
2992,Dummy2992,3992
2991,Dummy2991,3991
2990,Dummy2990,3990
2989,Dummy2989,3989
2988,Dummy2988,3988
2987,Dummy2987,3987
2986,Dummy2986,3986
2985,Dummy2985,3985
2984,Dummy2984,3984
2983,Dummy2983,3983
2982,Dummy2982,3982
2981,Dummy2981,3981
2980,Dummy2980,3980
2979,Dummy2979,3979
2978,Dummy2978,3978
2977,Dummy2977,3977
2976,Dummy2976,3976
2975,Dummy2975,3975
2974,Dummy2974,3974
2973,Dummy2973,3973
2972,Dummy2972,3972
2971,Dummy2971,3971
2970,Dummy2970,3970
2969,Dummy2969,3969
2968,Dummy2968,3968
2967,Dummy2967,3967
2966,Dummy2966,3966
2965,Dummy2965,3965
2964,Dummy2964,3964
2963,Dummy2963,3963
2962,Dummy2962,3962
2961,Dummy2961,3961
2960,Dummy2960,3960
2959,Dummy2959,3959
2958,Dummy2958,3958
2957,Dummy2957,3957
2956,Dummy2956,3956
2955,Dummy2955,3955
2954,Dummy2954,3954
2953,Dummy2953,3953
2952,Dummy2952,3952
2951,Dummy2951,3951
2950,Dummy2950,3950
2949,Dummy2949,3949
2948,Dummy2948,3948
2947,Dummy2947,3947
2946,Dummy2946,3946
2945,Dummy2945,3945
2944,Dummy2944,3944
2943,Dummy2943,3943
2942,Dummy2942,3942
2941,Dummy2941,3941
2940,Dummy2940,3940
2939,Dummy2939,3939
2938,Dummy2938,3938
2937,Dummy2937,3937
2936,Dummy2936,3936
2935,Dummy2935,3935
2934,Dummy2934,3934
2933,Dummy2933,3933
2932,Dummy2932,3932
2931,Dummy2931,3931
2930,Dummy2930,3930
2929,Dummy2929,3929
2928,Dummy2928,3928
2927,Dummy2927,3927
2926,Dummy2926,3926
2925,Dummy2925,3925
2924,Dummy2924,3924
2923,Dummy2923,3923
2922,Dummy2922,3922
2921,Dummy2921,3921
2920,Dummy2920,3920
2919,Dummy2919,3919
2918,Dummy2918,3918
2917,Dummy2917,3917
2916,Dummy2916,3916
2915,Dummy2915,3915
2914,Dummy2914,3914
2913,Dummy2913,3913
2912,Dummy2912,3912
2911,Dummy2911,3911
2910,Dummy2910,3910
2909,Dummy2909,3909
2908,Dummy2908,3908
2907,Dummy2907,3907
2906,Dummy2906,3906
2905,Dummy2905,3905
2904,Dummy2904,3904
2903,Dummy2903,3903
2902,Dummy2902,3902
2901,Dummy2901,3901
2900,Dummy2900,3900
2899,Dummy2899,3899
2898,Dummy2898,3898
2897,Dummy2897,3897
2896,Dummy2896,3896
2895,Dummy2895,3895
2894,Dummy2894,3894
2893,Dummy2893,3893
2892,Dummy2892,3892
2891,Dummy2891,3891
2890,Dummy2890,3890
2889,Dummy2889,3889
2888,Dummy2888,3888
2887,Dummy2887,3887
2886,Dummy2886,3886
2885,Dummy2885,3885
2884,Dummy2884,3884
2883,Dummy2883,3883
2882,Dummy2882,3882
2881,Dummy2881,3881
2880,Dummy2880,3880
2879,Dummy2879,3879
2878,Dummy2878,3878
2877,Dummy2877,3877
2876,Dummy2876,3876
2875,Dummy2875,3875
2874,Dummy2874,3874
2873,Dummy2873,3873
2872,Dummy2872,3872
2871,Dummy2871,3871
2870,Dummy2870,3870
2869,Dummy2869,3869
2868,Dummy2868,3868
2867,Dummy2867,3867
2866,Dummy2866,3866
2865,Dummy2865,3865
2864,Dummy2864,3864
2863,Dummy2863,3863
2862,Dummy2862,3862
2861,Dummy2861,3861
2860,Dummy2860,3860
2859,Dummy2859,3859
2858,Dummy2858,3858
2857,Dummy2857,3857
2856,Dummy2856,3856
2855,Dummy2855,3855
2854,Dummy2854,3854
2853,Dummy2853,3853
2852,Dummy2852,3852
2851,Dummy2851,3851
2850,Dummy2850,3850
2849,Dummy2849,3849
2848,Dummy2848,3848
2847,Dummy2847,3847
2846,Dummy2846,3846
2845,Dummy2845,3845
2844,Dummy2844,3844
2843,Dummy2843,3843
2842,Dummy2842,3842
2841,Dummy2841,3841
2840,Dummy2840,3840
2839,Dummy2839,3839
2838,Dummy2838,3838
2837,Dummy2837,3837
2836,Dummy2836,3836
2835,Dummy2835,3835
2834,Dummy2834,3834
2833,Dummy2833,3833
2832,Dummy2832,3832
2831,Dummy2831,3831
2830,Dummy2830,3830
2829,Dummy2829,3829
2828,Dummy2828,3828
2827,Dummy2827,3827
2826,Dummy2826,3826
2825,Dummy2825,3825
2824,Dummy2824,3824
2823,Dummy2823,3823
2822,Dummy2822,3822
2821,Dummy2821,3821
2820,Dummy2820,3820
2819,Dummy2819,3819
2818,Dummy2818,3818
2817,Dummy2817,3817
2816,Dummy2816,3816
2815,Dummy2815,3815
2814,Dummy2814,3814
2813,Dummy2813,3813
2812,Dummy2812,3812
2811,Dummy2811,3811
2810,Dummy2810,3810
2809,Dummy2809,3809
2808,Dummy2808,3808
2807,Dummy2807,3807
2806,Dummy2806,3806
2805,Dummy2805,3805
2804,Dummy2804,3804
2803,Dummy2803,3803
2802,Dummy2802,3802
2801,Dummy2801,3801
2800,Dummy2800,3800
2799,Dummy2799,3799
2798,Dummy2798,3798
2797,Dummy2797,3797
2796,Dummy2796,3796
2795,Dummy2795,3795
2794,Dummy2794,3794
2793,Dummy2793,3793
2792,Dummy2792,3792
2791,Dummy2791,3791
2790,Dummy2790,3790
2789,Dummy2789,3789
2788,Dummy2788,3788
2787,Dummy2787,3787
2786,Dummy2786,3786
2785,Dummy2785,3785
2784,Dummy2784,3784
2783,Dummy2783,3783
2782,Dummy2782,3782
2781,Dummy2781,3781
2780,Dummy2780,3780
2779,Dummy2779,3779
2778,Dummy2778,3778
2777,Dummy2777,3777
2776,Dummy2776,3776
2775,Dummy2775,3775
2774,Dummy2774,3774
2773,Dummy2773,3773
2772,Dummy2772,3772
2771,Dummy2771,3771
2770,Dummy2770,3770
2769,Dummy2769,3769
2768,Dummy2768,3768
2767,Dummy2767,3767
2766,Dummy2766,3766
2765,Dummy2765,3765
2764,Dummy2764,3764
2763,Dummy2763,3763
2762,Dummy2762,3762
2761,Dummy2761,3761
2760,Dummy2760,3760
2759,Dummy2759,3759
2758,Dummy2758,3758
2757,Dummy2757,3757
2756,Dummy2756,3756
2755,Dummy2755,3755
2754,Dummy2754,3754
2753,Dummy2753,3753
2752,Dummy2752,3752
2751,Dummy2751,3751
2750,Dummy2750,3750
2749,Dummy2749,3749
2748,Dummy2748,3748
2747,Dummy2747,3747
2746,Dummy2746,3746
2745,Dummy2745,3745
2744,Dummy2744,3744
2743,Dummy2743,3743
2742,Dummy2742,3742
2741,Dummy2741,3741
2740,Dummy2740,3740
2739,Dummy2739,3739
2738,Dummy2738,3738
2737,Dummy2737,3737
2736,Dummy2736,3736
2735,Dummy2735,3735
2734,Dummy2734,3734
2733,Dummy2733,3733
2732,Dummy2732,3732
2731,Dummy2731,3731
2730,Dummy2730,3730
2729,Dummy2729,3729
2728,Dummy2728,3728
2727,Dummy2727,3727
2726,Dummy2726,3726
2725,Dummy2725,3725
2724,Dummy2724,3724
2723,Dummy2723,3723
2722,Dummy2722,3722
2721,Dummy2721,3721
2720,Dummy2720,3720
2719,Dummy2719,3719
2718,Dummy2718,3718
2717,Dummy2717,3717
2716,Dummy2716,3716
2715,Dummy2715,3715
2714,Dummy2714,3714
2713,Dummy2713,3713
2712,Dummy2712,3712
2711,Dummy2711,3711
2710,Dummy2710,3710
2709,Dummy2709,3709
2708,Dummy2708,3708
2707,Dummy2707,3707
2706,Dummy2706,3706
2705,Dummy2705,3705
2704,Dummy2704,3704
2703,Dummy2703,3703
2702,Dummy2702,3702
2701,Dummy2701,3701
2700,Dummy2700,3700
2699,Dummy2699,3699
2698,Dummy2698,3698
2697,Dummy2697,3697
2696,Dummy2696,3696
2695,Dummy2695,3695
2694,Dummy2694,3694
2693,Dummy2693,3693
2692,Dummy2692,3692
2691,Dummy2691,3691
2690,Dummy2690,3690
2689,Dummy2689,3689
2688,Dummy2688,3688
2687,Dummy2687,3687
2686,Dummy2686,3686
2685,Dummy2685,3685
2684,Dummy2684,3684
2683,Dummy2683,3683
2682,Dummy2682,3682
2681,Dummy2681,3681
2680,Dummy2680,3680
2679,Dummy2679,3679
2678,Dummy2678,3678
2677,Dummy2677,3677
2676,Dummy2676,3676
2675,Dummy2675,3675
2674,Dummy2674,3674
2673,Dummy2673,3673
2672,Dummy2672,3672
2671,Dummy2671,3671
2670,Dummy2670,3670
2669,Dummy2669,3669
2668,Dummy2668,3668
2667,Dummy2667,3667
2666,Dummy2666,3666
2665,Dummy2665,3665
2664,Dummy2664,3664
2663,Dummy2663,3663
2662,Dummy2662,3662
2661,Dummy2661,3661
2660,Dummy2660,3660
2659,Dummy2659,3659
2658,Dummy2658,3658
2657,Dummy2657,3657
2656,Dummy2656,3656
2655,Dummy2655,3655
2654,Dummy2654,3654
2653,Dummy2653,3653
2652,Dummy2652,3652
2651,Dummy2651,3651
2650,Dummy2650,3650
2649,Dummy2649,3649
2648,Dummy2648,3648
2647,Dummy2647,3647
2646,Dummy2646,3646
2645,Dummy2645,3645
2644,Dummy2644,3644
2643,Dummy2643,3643
2642,Dummy2642,3642
2641,Dummy2641,3641
2640,Dummy2640,3640
2639,Dummy2639,3639
2638,Dummy2638,3638
2637,Dummy2637,3637
2636,Dummy2636,3636
2635,Dummy2635,3635
2634,Dummy2634,3634
2633,Dummy2633,3633
2632,Dummy2632,3632
2631,Dummy2631,3631
2630,Dummy2630,3630
2629,Dummy2629,3629
2628,Dummy2628,3628
2627,Dummy2627,3627
2626,Dummy2626,3626
2625,Dummy2625,3625
2624,Dummy2624,3624
2623,Dummy2623,3623
2622,Dummy2622,3622
2621,Dummy2621,3621
2620,Dummy2620,3620
2619,Dummy2619,3619
2618,Dummy2618,3618
2617,Dummy2617,3617
2616,Dummy2616,3616
2615,Dummy2615,3615
2614,Dummy2614,3614
2613,Dummy2613,3613
2612,Dummy2612,3612
2611,Dummy2611,3611
2610,Dummy2610,3610
2609,Dummy2609,3609
2608,Dummy2608,3608
2607,Dummy2607,3607
2606,Dummy2606,3606
2605,Dummy2605,3605
2604,Dummy2604,3604
2603,Dummy2603,3603
2602,Dummy2602,3602
2601,Dummy2601,3601
2600,Dummy2600,3600
2599,Dummy2599,3599
2598,Dummy2598,3598
2597,Dummy2597,3597
2596,Dummy2596,3596
2595,Dummy2595,3595
2594,Dummy2594,3594
2593,Dummy2593,3593
2592,Dummy2592,3592
2591,Dummy2591,3591
2590,Dummy2590,3590
2589,Dummy2589,3589
2588,Dummy2588,3588
2587,Dummy2587,3587
2586,Dummy2586,3586
2585,Dummy2585,3585
2584,Dummy2584,3584
2583,Dummy2583,3583
2582,Dummy2582,3582
2581,Dummy2581,3581
2580,Dummy2580,3580
2579,Dummy2579,3579
2578,Dummy2578,3578
2577,Dummy2577,3577
2576,Dummy2576,3576
2575,Dummy2575,3575
2574,Dummy2574,3574
2573,Dummy2573,3573
2572,Dummy2572,3572
2571,Dummy2571,3571
2570,Dummy2570,3570
2569,Dummy2569,3569
2568,Dummy2568,3568
2567,Dummy2567,3567
2566,Dummy2566,3566
2565,Dummy2565,3565
2564,Dummy2564,3564
2563,Dummy2563,3563
2562,Dummy2562,3562
2561,Dummy2561,3561
2560,Dummy2560,3560
2559,Dummy2559,3559
2558,Dummy2558,3558
2557,Dummy2557,3557
2556,Dummy2556,3556
2555,Dummy2555,3555
2554,Dummy2554,3554
2553,Dummy2553,3553
2552,Dummy2552,3552
2551,Dummy2551,3551
2550,Dummy2550,3550
2549,Dummy2549,3549
2548,Dummy2548,3548
2547,Dummy2547,3547
2546,Dummy2546,3546
2545,Dummy2545,3545
2544,Dummy2544,3544
2543,Dummy2543,3543
2542,Dummy2542,3542
2541,Dummy2541,3541
2540,Dummy2540,3540
2539,Dummy2539,3539
2538,Dummy2538,3538
2537,Dummy2537,3537
2536,Dummy2536,3536
2535,Dummy2535,3535
2534,Dummy2534,3534
2533,Dummy2533,3533
2532,Dummy2532,3532
2531,Dummy2531,3531
2530,Dummy2530,3530
2529,Dummy2529,3529
2528,Dummy2528,3528
2527,Dummy2527,3527
2526,Dummy2526,3526
2525,Dummy2525,3525
2524,Dummy2524,3524
2523,Dummy2523,3523
2522,Dummy2522,3522
2521,Dummy2521,3521
2520,Dummy2520,3520
2519,Dummy2519,3519
2518,Dummy2518,3518
2517,Dummy2517,3517
2516,Dummy2516,3516
2515,Dummy2515,3515
2514,Dummy2514,3514
2513,Dummy2513,3513
2512,Dummy2512,3512
2511,Dummy2511,3511
2510,Dummy2510,3510
2509,Dummy2509,3509
2508,Dummy2508,3508
2507,Dummy2507,3507
2506,Dummy2506,3506
2505,Dummy2505,3505
2504,Dummy2504,3504
2503,Dummy2503,3503
2502,Dummy2502,3502
2501,Dummy2501,3501
2500,Dummy2500,3500
2499,Dummy2499,3499
2498,Dummy2498,3498
2497,Dummy2497,3497
2496,Dummy2496,3496
2495,Dummy2495,3495
2494,Dummy2494,3494
2493,Dummy2493,3493
2492,Dummy2492,3492
2491,Dummy2491,3491
2490,Dummy2490,3490
2489,Dummy2489,3489
2488,Dummy2488,3488
2487,Dummy2487,3487
2486,Dummy2486,3486
2485,Dummy2485,3485
2484,Dummy2484,3484
2483,Dummy2483,3483
2482,Dummy2482,3482
2481,Dummy2481,3481
2480,Dummy2480,3480
2479,Dummy2479,3479
2478,Dummy2478,3478
2477,Dummy2477,3477
2476,Dummy2476,3476
2475,Dummy2475,3475
2474,Dummy2474,3474
2473,Dummy2473,3473
2472,Dummy2472,3472
2471,Dummy2471,3471
2470,Dummy2470,3470
2469,Dummy2469,3469
2468,Dummy2468,3468
2467,Dummy2467,3467
2466,Dummy2466,3466
2465,Dummy2465,3465
2464,Dummy2464,3464
2463,Dummy2463,3463
2462,Dummy2462,3462
2461,Dummy2461,3461
2460,Dummy2460,3460
2459,Dummy2459,3459
2458,Dummy2458,3458
2457,Dummy2457,3457
2456,Dummy2456,3456
2455,Dummy2455,3455
2454,Dummy2454,3454
2453,Dummy2453,3453
2452,Dummy2452,3452
2451,Dummy2451,3451
2450,Dummy2450,3450
2449,Dummy2449,3449
2448,Dummy2448,3448
2447,Dummy2447,3447
2446,Dummy2446,3446
2445,Dummy2445,3445
2444,Dummy2444,3444
2443,Dummy2443,3443
2442,Dummy2442,3442
2441,Dummy2441,3441
2440,Dummy2440,3440
2439,Dummy2439,3439
2438,Dummy2438,3438
2437,Dummy2437,3437
2436,Dummy2436,3436
2435,Dummy2435,3435
2434,Dummy2434,3434
2433,Dummy2433,3433
2432,Dummy2432,3432
2431,Dummy2431,3431
2430,Dummy2430,3430
2429,Dummy2429,3429
2428,Dummy2428,3428
2427,Dummy2427,3427
2426,Dummy2426,3426
2425,Dummy2425,3425
2424,Dummy2424,3424
2423,Dummy2423,3423
2422,Dummy2422,3422
2421,Dummy2421,3421
2420,Dummy2420,3420
2419,Dummy2419,3419
2418,Dummy2418,3418
2417,Dummy2417,3417
2416,Dummy2416,3416
2415,Dummy2415,3415
2414,Dummy2414,3414
2413,Dummy2413,3413
2412,Dummy2412,3412
2411,Dummy2411,3411
2410,Dummy2410,3410
2409,Dummy2409,3409
2408,Dummy2408,3408
2407,Dummy2407,3407
2406,Dummy2406,3406
2405,Dummy2405,3405
2404,Dummy2404,3404
2403,Dummy2403,3403
2402,Dummy2402,3402
2401,Dummy2401,3401
2400,Dummy2400,3400
2399,Dummy2399,3399
2398,Dummy2398,3398
2397,Dummy2397,3397
2396,Dummy2396,3396
2395,Dummy2395,3395
2394,Dummy2394,3394
2393,Dummy2393,3393
2392,Dummy2392,3392
2391,Dummy2391,3391
2390,Dummy2390,3390
2389,Dummy2389,3389
2388,Dummy2388,3388
2387,Dummy2387,3387
2386,Dummy2386,3386
2385,Dummy2385,3385
2384,Dummy2384,3384
2383,Dummy2383,3383
2382,Dummy2382,3382
2381,Dummy2381,3381
2380,Dummy2380,3380
2379,Dummy2379,3379
2378,Dummy2378,3378
2377,Dummy2377,3377
2376,Dummy2376,3376
2375,Dummy2375,3375
2374,Dummy2374,3374
2373,Dummy2373,3373
2372,Dummy2372,3372
2371,Dummy2371,3371
2370,Dummy2370,3370
2369,Dummy2369,3369
2368,Dummy2368,3368
2367,Dummy2367,3367
2366,Dummy2366,3366
2365,Dummy2365,3365
2364,Dummy2364,3364
2363,Dummy2363,3363
2362,Dummy2362,3362
2361,Dummy2361,3361
2360,Dummy2360,3360
2359,Dummy2359,3359
2358,Dummy2358,3358
2357,Dummy2357,3357
2356,Dummy2356,3356
2355,Dummy2355,3355
2354,Dummy2354,3354
2353,Dummy2353,3353
2352,Dummy2352,3352
2351,Dummy2351,3351
2350,Dummy2350,3350
2349,Dummy2349,3349
2348,Dummy2348,3348
2347,Dummy2347,3347
2346,Dummy2346,3346
2345,Dummy2345,3345
2344,Dummy2344,3344
2343,Dummy2343,3343
2342,Dummy2342,3342
2341,Dummy2341,3341
2340,Dummy2340,3340
2339,Dummy2339,3339
2338,Dummy2338,3338
2337,Dummy2337,3337
2336,Dummy2336,3336
2335,Dummy2335,3335
2334,Dummy2334,3334
2333,Dummy2333,3333
2332,Dummy2332,3332
2331,Dummy2331,3331
2330,Dummy2330,3330
2329,Dummy2329,3329
2328,Dummy2328,3328
2327,Dummy2327,3327
2326,Dummy2326,3326
2325,Dummy2325,3325
2324,Dummy2324,3324
2323,Dummy2323,3323
2322,Dummy2322,3322
2321,Dummy2321,3321
2320,Dummy2320,3320
2319,Dummy2319,3319
2318,Dummy2318,3318
2317,Dummy2317,3317
2316,Dummy2316,3316
2315,Dummy2315,3315
2314,Dummy2314,3314
2313,Dummy2313,3313
2312,Dummy2312,3312
2311,Dummy2311,3311
2310,Dummy2310,3310
2309,Dummy2309,3309
2308,Dummy2308,3308
2307,Dummy2307,3307
2306,Dummy2306,3306
2305,Dummy2305,3305
2304,Dummy2304,3304
2303,Dummy2303,3303
2302,Dummy2302,3302
2301,Dummy2301,3301
2300,Dummy2300,3300
2299,Dummy2299,3299
2298,Dummy2298,3298
2297,Dummy2297,3297
2296,Dummy2296,3296
2295,Dummy2295,3295
2294,Dummy2294,3294
2293,Dummy2293,3293
2292,Dummy2292,3292
2291,Dummy2291,3291
2290,Dummy2290,3290
2289,Dummy2289,3289
2288,Dummy2288,3288
2287,Dummy2287,3287
2286,Dummy2286,3286
2285,Dummy2285,3285
2284,Dummy2284,3284
2283,Dummy2283,3283
2282,Dummy2282,3282
2281,Dummy2281,3281
2280,Dummy2280,3280
2279,Dummy2279,3279
2278,Dummy2278,3278
2277,Dummy2277,3277
2276,Dummy2276,3276
2275,Dummy2275,3275
2274,Dummy2274,3274
2273,Dummy2273,3273
2272,Dummy2272,3272
2271,Dummy2271,3271
2270,Dummy2270,3270
2269,Dummy2269,3269
2268,Dummy2268,3268
2267,Dummy2267,3267
2266,Dummy2266,3266
2265,Dummy2265,3265
2264,Dummy2264,3264
2263,Dummy2263,3263
2262,Dummy2262,3262
2261,Dummy2261,3261
2260,Dummy2260,3260
2259,Dummy2259,3259
2258,Dummy2258,3258
2257,Dummy2257,3257
2256,Dummy2256,3256
2255,Dummy2255,3255
2254,Dummy2254,3254
2253,Dummy2253,3253
2252,Dummy2252,3252
2251,Dummy2251,3251
2250,Dummy2250,3250
2249,Dummy2249,3249
2248,Dummy2248,3248
2247,Dummy2247,3247
2246,Dummy2246,3246
2245,Dummy2245,3245
2244,Dummy2244,3244
2243,Dummy2243,3243
2242,Dummy2242,3242
2241,Dummy2241,3241
2240,Dummy2240,3240
2239,Dummy2239,3239
2238,Dummy2238,3238
2237,Dummy2237,3237
2236,Dummy2236,3236
2235,Dummy2235,3235
2234,Dummy2234,3234
2233,Dummy2233,3233
2232,Dummy2232,3232
2231,Dummy2231,3231
2230,Dummy2230,3230
2229,Dummy2229,3229
2228,Dummy2228,3228
2227,Dummy2227,3227
2226,Dummy2226,3226
2225,Dummy2225,3225
2224,Dummy2224,3224
2223,Dummy2223,3223
2222,Dummy2222,3222
2221,Dummy2221,3221
2220,Dummy2220,3220
2219,Dummy2219,3219
2218,Dummy2218,3218
2217,Dummy2217,3217
2216,Dummy2216,3216
2215,Dummy2215,3215
2214,Dummy2214,3214
2213,Dummy2213,3213
2212,Dummy2212,3212
2211,Dummy2211,3211
2210,Dummy2210,3210
2209,Dummy2209,3209
2208,Dummy2208,3208
2207,Dummy2207,3207
2206,Dummy2206,3206
2205,Dummy2205,3205
2204,Dummy2204,3204
2203,Dummy2203,3203
2202,Dummy2202,3202
2201,Dummy2201,3201
2200,Dummy2200,3200
2199,Dummy2199,3199
2198,Dummy2198,3198
2197,Dummy2197,3197
2196,Dummy2196,3196
2195,Dummy2195,3195
2194,Dummy2194,3194
2193,Dummy2193,3193
2192,Dummy2192,3192
2191,Dummy2191,3191
2190,Dummy2190,3190
2189,Dummy2189,3189
2188,Dummy2188,3188
2187,Dummy2187,3187
2186,Dummy2186,3186
2185,Dummy2185,3185
2184,Dummy2184,3184
2183,Dummy2183,3183
2182,Dummy2182,3182
2181,Dummy2181,3181
2180,Dummy2180,3180
2179,Dummy2179,3179
2178,Dummy2178,3178
2177,Dummy2177,3177
2176,Dummy2176,3176
2175,Dummy2175,3175
2174,Dummy2174,3174
2173,Dummy2173,3173
2172,Dummy2172,3172
2171,Dummy2171,3171
2170,Dummy2170,3170
2169,Dummy2169,3169
2168,Dummy2168,3168
2167,Dummy2167,3167
2166,Dummy2166,3166
2165,Dummy2165,3165
2164,Dummy2164,3164
2163,Dummy2163,3163
2162,Dummy2162,3162
2161,Dummy2161,3161
2160,Dummy2160,3160
2159,Dummy2159,3159
2158,Dummy2158,3158
2157,Dummy2157,3157
2156,Dummy2156,3156
2155,Dummy2155,3155
2154,Dummy2154,3154
2153,Dummy2153,3153
2152,Dummy2152,3152
2151,Dummy2151,3151
2150,Dummy2150,3150
2149,Dummy2149,3149
2148,Dummy2148,3148
2147,Dummy2147,3147
2146,Dummy2146,3146
2145,Dummy2145,3145
2144,Dummy2144,3144
2143,Dummy2143,3143
2142,Dummy2142,3142
2141,Dummy2141,3141
2140,Dummy2140,3140
2139,Dummy2139,3139
2138,Dummy2138,3138
2137,Dummy2137,3137
2136,Dummy2136,3136
2135,Dummy2135,3135
2134,Dummy2134,3134
2133,Dummy2133,3133
2132,Dummy2132,3132
2131,Dummy2131,3131
2130,Dummy2130,3130
2129,Dummy2129,3129
2128,Dummy2128,3128
2127,Dummy2127,3127
2126,Dummy2126,3126
2125,Dummy2125,3125
2124,Dummy2124,3124
2123,Dummy2123,3123
2122,Dummy2122,3122
2121,Dummy2121,3121
2120,Dummy2120,3120
2119,Dummy2119,3119
2118,Dummy2118,3118
2117,Dummy2117,3117
2116,Dummy2116,3116
2115,Dummy2115,3115
2114,Dummy2114,3114
2113,Dummy2113,3113
2112,Dummy2112,3112
2111,Dummy2111,3111
2110,Dummy2110,3110
2109,Dummy2109,3109
2108,Dummy2108,3108
2107,Dummy2107,3107
2106,Dummy2106,3106
2105,Dummy2105,3105
2104,Dummy2104,3104
2103,Dummy2103,3103
2102,Dummy2102,3102
2101,Dummy2101,3101
2100,Dummy2100,3100
2099,Dummy2099,3099
2098,Dummy2098,3098
2097,Dummy2097,3097
2096,Dummy2096,3096
2095,Dummy2095,3095
2094,Dummy2094,3094
2093,Dummy2093,3093
2092,Dummy2092,3092
2091,Dummy2091,3091
2090,Dummy2090,3090
2089,Dummy2089,3089
2088,Dummy2088,3088
2087,Dummy2087,3087
2086,Dummy2086,3086
2085,Dummy2085,3085
2084,Dummy2084,3084
2083,Dummy2083,3083
2082,Dummy2082,3082
2081,Dummy2081,3081
2080,Dummy2080,3080
2079,Dummy2079,3079
2078,Dummy2078,3078
2077,Dummy2077,3077
2076,Dummy2076,3076
2075,Dummy2075,3075
2074,Dummy2074,3074
2073,Dummy2073,3073
2072,Dummy2072,3072
2071,Dummy2071,3071
2070,Dummy2070,3070
2069,Dummy2069,3069
2068,Dummy2068,3068
2067,Dummy2067,3067
2066,Dummy2066,3066
2065,Dummy2065,3065
2064,Dummy2064,3064
2063,Dummy2063,3063
2062,Dummy2062,3062
2061,Dummy2061,3061
2060,Dummy2060,3060
2059,Dummy2059,3059
2058,Dummy2058,3058
2057,Dummy2057,3057
2056,Dummy2056,3056
2055,Dummy2055,3055
2054,Dummy2054,3054
2053,Dummy2053,3053
2052,Dummy2052,3052
2051,Dummy2051,3051
2050,Dummy2050,3050
2049,Dummy2049,3049
2048,Dummy2048,3048
2047,Dummy2047,3047
2046,Dummy2046,3046
2045,Dummy2045,3045
2044,Dummy2044,3044
2043,Dummy2043,3043
2042,Dummy2042,3042
2041,Dummy2041,3041
2040,Dummy2040,3040
2039,Dummy2039,3039
2038,Dummy2038,3038
2037,Dummy2037,3037
2036,Dummy2036,3036
2035,Dummy2035,3035
2034,Dummy2034,3034
2033,Dummy2033,3033
2032,Dummy2032,3032
2031,Dummy2031,3031
2030,Dummy2030,3030
2029,Dummy2029,3029
2028,Dummy2028,3028
2027,Dummy2027,3027
2026,Dummy2026,3026
2025,Dummy2025,3025
2024,Dummy2024,3024
2023,Dummy2023,3023
2022,Dummy2022,3022
2021,Dummy2021,3021
2020,Dummy2020,3020
2019,Dummy2019,3019
2018,Dummy2018,3018
2017,Dummy2017,3017
2016,Dummy2016,3016
2015,Dummy2015,3015
2014,Dummy2014,3014
2013,Dummy2013,3013
2012,Dummy2012,3012
2011,Dummy2011,3011
2010,Dummy2010,3010
2009,Dummy2009,3009
2008,Dummy2008,3008
2007,Dummy2007,3007
2006,Dummy2006,3006
2005,Dummy2005,3005
2004,Dummy2004,3004
2003,Dummy2003,3003
2002,Dummy2002,3002
2001,Dummy2001,3001
2000,Dummy2000,3000
1999,Dummy1999,2999
1998,Dummy1998,2998
1997,Dummy1997,2997
1996,Dummy1996,2996
1995,Dummy1995,2995
1994,Dummy1994,2994
1993,Dummy1993,2993
1992,Dummy1992,2992
1991,Dummy1991,2991
1990,Dummy1990,2990
1989,Dummy1989,2989
1988,Dummy1988,2988
1987,Dummy1987,2987
1986,Dummy1986,2986
1985,Dummy1985,2985
1984,Dummy1984,2984
1983,Dummy1983,2983
1982,Dummy1982,2982
1981,Dummy1981,2981
1980,Dummy1980,2980
1979,Dummy1979,2979
1978,Dummy1978,2978
1977,Dummy1977,2977
1976,Dummy1976,2976
1975,Dummy1975,2975
1974,Dummy1974,2974
1973,Dummy1973,2973
1972,Dummy1972,2972
1971,Dummy1971,2971
1970,Dummy1970,2970
1969,Dummy1969,2969
1968,Dummy1968,2968
1967,Dummy1967,2967
1966,Dummy1966,2966
1965,Dummy1965,2965
1964,Dummy1964,2964
1963,Dummy1963,2963
1962,Dummy1962,2962
1961,Dummy1961,2961
1960,Dummy1960,2960
1959,Dummy1959,2959
1958,Dummy1958,2958
1957,Dummy1957,2957
1956,Dummy1956,2956
1955,Dummy1955,2955
1954,Dummy1954,2954
1953,Dummy1953,2953
1952,Dummy1952,2952
1951,Dummy1951,2951
1950,Dummy1950,2950
1949,Dummy1949,2949
1948,Dummy1948,2948
1947,Dummy1947,2947
1946,Dummy1946,2946
1945,Dummy1945,2945
1944,Dummy1944,2944
1943,Dummy1943,2943
1942,Dummy1942,2942
1941,Dummy1941,2941
1940,Dummy1940,2940
1939,Dummy1939,2939
1938,Dummy1938,2938
1937,Dummy1937,2937
1936,Dummy1936,2936
1935,Dummy1935,2935
1934,Dummy1934,2934
1933,Dummy1933,2933
1932,Dummy1932,2932
1931,Dummy1931,2931
1930,Dummy1930,2930
1929,Dummy1929,2929
1928,Dummy1928,2928
1927,Dummy1927,2927
1926,Dummy1926,2926
1925,Dummy1925,2925
1924,Dummy1924,2924
1923,Dummy1923,2923
1922,Dummy1922,2922
1921,Dummy1921,2921
1920,Dummy1920,2920
1919,Dummy1919,2919
1918,Dummy1918,2918
1917,Dummy1917,2917
1916,Dummy1916,2916
1915,Dummy1915,2915
1914,Dummy1914,2914
1913,Dummy1913,2913
1912,Dummy1912,2912
1911,Dummy1911,2911
1910,Dummy1910,2910
1909,Dummy1909,2909
1908,Dummy1908,2908
1907,Dummy1907,2907
1906,Dummy1906,2906
1905,Dummy1905,2905
1904,Dummy1904,2904
1903,Dummy1903,2903
1902,Dummy1902,2902
1901,Dummy1901,2901
1900,Dummy1900,2900
1899,Dummy1899,2899
1898,Dummy1898,2898
1897,Dummy1897,2897
1896,Dummy1896,2896
1895,Dummy1895,2895
1894,Dummy1894,2894
1893,Dummy1893,2893
1892,Dummy1892,2892
1891,Dummy1891,2891
1890,Dummy1890,2890
1889,Dummy1889,2889
1888,Dummy1888,2888
1887,Dummy1887,2887
1886,Dummy1886,2886
1885,Dummy1885,2885
1884,Dummy1884,2884
1883,Dummy1883,2883
1882,Dummy1882,2882
1881,Dummy1881,2881
1880,Dummy1880,2880
1879,Dummy1879,2879
1878,Dummy1878,2878
1877,Dummy1877,2877
1876,Dummy1876,2876
1875,Dummy1875,2875
1874,Dummy1874,2874
1873,Dummy1873,2873
1872,Dummy1872,2872
1871,Dummy1871,2871
1870,Dummy1870,2870
1869,Dummy1869,2869
1868,Dummy1868,2868
1867,Dummy1867,2867
1866,Dummy1866,2866
1865,Dummy1865,2865
1864,Dummy1864,2864
1863,Dummy1863,2863
1862,Dummy1862,2862
1861,Dummy1861,2861
1860,Dummy1860,2860
1859,Dummy1859,2859
1858,Dummy1858,2858
1857,Dummy1857,2857
1856,Dummy1856,2856
1855,Dummy1855,2855
1854,Dummy1854,2854
1853,Dummy1853,2853
1852,Dummy1852,2852
1851,Dummy1851,2851
1850,Dummy1850,2850
1849,Dummy1849,2849
1848,Dummy1848,2848
1847,Dummy1847,2847
1846,Dummy1846,2846
1845,Dummy1845,2845
1844,Dummy1844,2844
1843,Dummy1843,2843
1842,Dummy1842,2842
1841,Dummy1841,2841
1840,Dummy1840,2840
1839,Dummy1839,2839
1838,Dummy1838,2838
1837,Dummy1837,2837
1836,Dummy1836,2836
1835,Dummy1835,2835
1834,Dummy1834,2834
1833,Dummy1833,2833
1832,Dummy1832,2832
1831,Dummy1831,2831
1830,Dummy1830,2830
1829,Dummy1829,2829
1828,Dummy1828,2828
1827,Dummy1827,2827
1826,Dummy1826,2826
1825,Dummy1825,2825
1824,Dummy1824,2824
1823,Dummy1823,2823
1822,Dummy1822,2822
1821,Dummy1821,2821
1820,Dummy1820,2820
1819,Dummy1819,2819
1818,Dummy1818,2818
1817,Dummy1817,2817
1816,Dummy1816,2816
1815,Dummy1815,2815
1814,Dummy1814,2814
1813,Dummy1813,2813
1812,Dummy1812,2812
1811,Dummy1811,2811
1810,Dummy1810,2810
1809,Dummy1809,2809
1808,Dummy1808,2808
1807,Dummy1807,2807
1806,Dummy1806,2806
1805,Dummy1805,2805
1804,Dummy1804,2804
1803,Dummy1803,2803
1802,Dummy1802,2802
1801,Dummy1801,2801
1800,Dummy1800,2800
1799,Dummy1799,2799
1798,Dummy1798,2798
1797,Dummy1797,2797
1796,Dummy1796,2796
1795,Dummy1795,2795
1794,Dummy1794,2794
1793,Dummy1793,2793
1792,Dummy1792,2792
1791,Dummy1791,2791
1790,Dummy1790,2790
1789,Dummy1789,2789
1788,Dummy1788,2788
1787,Dummy1787,2787
1786,Dummy1786,2786
1785,Dummy1785,2785
1784,Dummy1784,2784
1783,Dummy1783,2783
1782,Dummy1782,2782
1781,Dummy1781,2781
1780,Dummy1780,2780
1779,Dummy1779,2779
1778,Dummy1778,2778
1777,Dummy1777,2777
1776,Dummy1776,2776
1775,Dummy1775,2775
1774,Dummy1774,2774
1773,Dummy1773,2773
1772,Dummy1772,2772
1771,Dummy1771,2771
1770,Dummy1770,2770
1769,Dummy1769,2769
1768,Dummy1768,2768
1767,Dummy1767,2767
1766,Dummy1766,2766
1765,Dummy1765,2765
1764,Dummy1764,2764
1763,Dummy1763,2763
1762,Dummy1762,2762
1761,Dummy1761,2761
1760,Dummy1760,2760
1759,Dummy1759,2759
1758,Dummy1758,2758
1757,Dummy1757,2757
1756,Dummy1756,2756
1755,Dummy1755,2755
1754,Dummy1754,2754
1753,Dummy1753,2753
1752,Dummy1752,2752
1751,Dummy1751,2751
1750,Dummy1750,2750
1749,Dummy1749,2749
1748,Dummy1748,2748
1747,Dummy1747,2747
1746,Dummy1746,2746
1745,Dummy1745,2745
1744,Dummy1744,2744
1743,Dummy1743,2743
1742,Dummy1742,2742
1741,Dummy1741,2741
1740,Dummy1740,2740
1739,Dummy1739,2739
1738,Dummy1738,2738
1737,Dummy1737,2737
1736,Dummy1736,2736
1735,Dummy1735,2735
1734,Dummy1734,2734
1733,Dummy1733,2733
1732,Dummy1732,2732
1731,Dummy1731,2731
1730,Dummy1730,2730
1729,Dummy1729,2729
1728,Dummy1728,2728
1727,Dummy1727,2727
1726,Dummy1726,2726
1725,Dummy1725,2725
1724,Dummy1724,2724
1723,Dummy1723,2723
1722,Dummy1722,2722
1721,Dummy1721,2721
1720,Dummy1720,2720
1719,Dummy1719,2719
1718,Dummy1718,2718
1717,Dummy1717,2717
1716,Dummy1716,2716
1715,Dummy1715,2715
1714,Dummy1714,2714
1713,Dummy1713,2713
1712,Dummy1712,2712
1711,Dummy1711,2711
1710,Dummy1710,2710
1709,Dummy1709,2709
1708,Dummy1708,2708
1707,Dummy1707,2707
1706,Dummy1706,2706
1705,Dummy1705,2705
1704,Dummy1704,2704
1703,Dummy1703,2703
1702,Dummy1702,2702
1701,Dummy1701,2701
1700,Dummy1700,2700
1699,Dummy1699,2699
1698,Dummy1698,2698
1697,Dummy1697,2697
1696,Dummy1696,2696
1695,Dummy1695,2695
1694,Dummy1694,2694
1693,Dummy1693,2693
1692,Dummy1692,2692
1691,Dummy1691,2691
1690,Dummy1690,2690
1689,Dummy1689,2689
1688,Dummy1688,2688
1687,Dummy1687,2687
1686,Dummy1686,2686
1685,Dummy1685,2685
1684,Dummy1684,2684
1683,Dummy1683,2683
1682,Dummy1682,2682
1681,Dummy1681,2681
1680,Dummy1680,2680
1679,Dummy1679,2679
1678,Dummy1678,2678
1677,Dummy1677,2677
1676,Dummy1676,2676
1675,Dummy1675,2675
1674,Dummy1674,2674
1673,Dummy1673,2673
1672,Dummy1672,2672
1671,Dummy1671,2671
1670,Dummy1670,2670
1669,Dummy1669,2669
1668,Dummy1668,2668
1667,Dummy1667,2667
1666,Dummy1666,2666
1665,Dummy1665,2665
1664,Dummy1664,2664
1663,Dummy1663,2663
1662,Dummy1662,2662
1661,Dummy1661,2661
1660,Dummy1660,2660
1659,Dummy1659,2659
1658,Dummy1658,2658
1657,Dummy1657,2657
1656,Dummy1656,2656
1655,Dummy1655,2655
1654,Dummy1654,2654
1653,Dummy1653,2653
1652,Dummy1652,2652
1651,Dummy1651,2651
1650,Dummy1650,2650
1649,Dummy1649,2649
1648,Dummy1648,2648
1647,Dummy1647,2647
1646,Dummy1646,2646
1645,Dummy1645,2645
1644,Dummy1644,2644
1643,Dummy1643,2643
1642,Dummy1642,2642
1641,Dummy1641,2641
1640,Dummy1640,2640
1639,Dummy1639,2639
1638,Dummy1638,2638
1637,Dummy1637,2637
1636,Dummy1636,2636
1635,Dummy1635,2635
1634,Dummy1634,2634
1633,Dummy1633,2633
1632,Dummy1632,2632
1631,Dummy1631,2631
1630,Dummy1630,2630
1629,Dummy1629,2629
1628,Dummy1628,2628
1627,Dummy1627,2627
1626,Dummy1626,2626
1625,Dummy1625,2625
1624,Dummy1624,2624
1623,Dummy1623,2623
1622,Dummy1622,2622
1621,Dummy1621,2621
1620,Dummy1620,2620
1619,Dummy1619,2619
1618,Dummy1618,2618
1617,Dummy1617,2617
1616,Dummy1616,2616
1615,Dummy1615,2615
1614,Dummy1614,2614
1613,Dummy1613,2613
1612,Dummy1612,2612
1611,Dummy1611,2611
1610,Dummy1610,2610
1609,Dummy1609,2609
1608,Dummy1608,2608
1607,Dummy1607,2607
1606,Dummy1606,2606
1605,Dummy1605,2605
1604,Dummy1604,2604
1603,Dummy1603,2603
1602,Dummy1602,2602
1601,Dummy1601,2601
1600,Dummy1600,2600
1599,Dummy1599,2599
1598,Dummy1598,2598
1597,Dummy1597,2597
1596,Dummy1596,2596
1595,Dummy1595,2595
1594,Dummy1594,2594
1593,Dummy1593,2593
1592,Dummy1592,2592
1591,Dummy1591,2591
1590,Dummy1590,2590
1589,Dummy1589,2589
1588,Dummy1588,2588
1587,Dummy1587,2587
1586,Dummy1586,2586
1585,Dummy1585,2585
1584,Dummy1584,2584
1583,Dummy1583,2583
1582,Dummy1582,2582
1581,Dummy1581,2581
1580,Dummy1580,2580
1579,Dummy1579,2579
1578,Dummy1578,2578
1577,Dummy1577,2577
1576,Dummy1576,2576
1575,Dummy1575,2575
1574,Dummy1574,2574
1573,Dummy1573,2573
1572,Dummy1572,2572
1571,Dummy1571,2571
1570,Dummy1570,2570
1569,Dummy1569,2569
1568,Dummy1568,2568
1567,Dummy1567,2567
1566,Dummy1566,2566
1565,Dummy1565,2565
1564,Dummy1564,2564
1563,Dummy1563,2563
1562,Dummy1562,2562
1561,Dummy1561,2561
1560,Dummy1560,2560
1559,Dummy1559,2559
1558,Dummy1558,2558
1557,Dummy1557,2557
1556,Dummy1556,2556
1555,Dummy1555,2555
1554,Dummy1554,2554
1553,Dummy1553,2553
1552,Dummy1552,2552
1551,Dummy1551,2551
1550,Dummy1550,2550
1549,Dummy1549,2549
1548,Dummy1548,2548
1547,Dummy1547,2547
1546,Dummy1546,2546
1545,Dummy1545,2545
1544,Dummy1544,2544
1543,Dummy1543,2543
1542,Dummy1542,2542
1541,Dummy1541,2541
1540,Dummy1540,2540
1539,Dummy1539,2539
1538,Dummy1538,2538
1537,Dummy1537,2537
1536,Dummy1536,2536
1535,Dummy1535,2535
1534,Dummy1534,2534
1533,Dummy1533,2533
1532,Dummy1532,2532
1531,Dummy1531,2531
1530,Dummy1530,2530
1529,Dummy1529,2529
1528,Dummy1528,2528
1527,Dummy1527,2527
1526,Dummy1526,2526
1525,Dummy1525,2525
1524,Dummy1524,2524
1523,Dummy1523,2523
1522,Dummy1522,2522
1521,Dummy1521,2521
1520,Dummy1520,2520
1519,Dummy1519,2519
1518,Dummy1518,2518
1517,Dummy1517,2517
1516,Dummy1516,2516
1515,Dummy1515,2515
1514,Dummy1514,2514
1513,Dummy1513,2513
1512,Dummy1512,2512
1511,Dummy1511,2511
1510,Dummy1510,2510
1509,Dummy1509,2509
1508,Dummy1508,2508
1507,Dummy1507,2507
1506,Dummy1506,2506
1505,Dummy1505,2505
1504,Dummy1504,2504
1503,Dummy1503,2503
1502,Dummy1502,2502
1501,Dummy1501,2501
1500,Dummy1500,2500
1499,Dummy1499,2499
1498,Dummy1498,2498
1497,Dummy1497,2497
1496,Dummy1496,2496
1495,Dummy1495,2495
1494,Dummy1494,2494
1493,Dummy1493,2493
1492,Dummy1492,2492
1491,Dummy1491,2491
1490,Dummy1490,2490
1489,Dummy1489,2489
1488,Dummy1488,2488
1487,Dummy1487,2487
1486,Dummy1486,2486
1485,Dummy1485,2485
1484,Dummy1484,2484
1483,Dummy1483,2483
1482,Dummy1482,2482
1481,Dummy1481,2481
1480,Dummy1480,2480
1479,Dummy1479,2479
1478,Dummy1478,2478
1477,Dummy1477,2477
1476,Dummy1476,2476
1475,Dummy1475,2475
1474,Dummy1474,2474
1473,Dummy1473,2473
1472,Dummy1472,2472
1471,Dummy1471,2471
1470,Dummy1470,2470
1469,Dummy1469,2469
1468,Dummy1468,2468
1467,Dummy1467,2467
1466,Dummy1466,2466
1465,Dummy1465,2465
1464,Dummy1464,2464
1463,Dummy1463,2463
1462,Dummy1462,2462
1461,Dummy1461,2461
1460,Dummy1460,2460
1459,Dummy1459,2459
1458,Dummy1458,2458
1457,Dummy1457,2457
1456,Dummy1456,2456
1455,Dummy1455,2455
1454,Dummy1454,2454
1453,Dummy1453,2453
1452,Dummy1452,2452
1451,Dummy1451,2451
1450,Dummy1450,2450
1449,Dummy1449,2449
1448,Dummy1448,2448
1447,Dummy1447,2447
1446,Dummy1446,2446
1445,Dummy1445,2445
1444,Dummy1444,2444
1443,Dummy1443,2443
1442,Dummy1442,2442
1441,Dummy1441,2441
1440,Dummy1440,2440
1439,Dummy1439,2439
1438,Dummy1438,2438
1437,Dummy1437,2437
1436,Dummy1436,2436
1435,Dummy1435,2435
1434,Dummy1434,2434
1433,Dummy1433,2433
1432,Dummy1432,2432
1431,Dummy1431,2431
1430,Dummy1430,2430
1429,Dummy1429,2429
1428,Dummy1428,2428
1427,Dummy1427,2427
1426,Dummy1426,2426
1425,Dummy1425,2425
1424,Dummy1424,2424
1423,Dummy1423,2423
1422,Dummy1422,2422
1421,Dummy1421,2421
1420,Dummy1420,2420
1419,Dummy1419,2419
1418,Dummy1418,2418
1417,Dummy1417,2417
1416,Dummy1416,2416
1415,Dummy1415,2415
1414,Dummy1414,2414
1413,Dummy1413,2413
1412,Dummy1412,2412
1411,Dummy1411,2411
1410,Dummy1410,2410
1409,Dummy1409,2409
1408,Dummy1408,2408
1407,Dummy1407,2407
1406,Dummy1406,2406
1405,Dummy1405,2405
1404,Dummy1404,2404
1403,Dummy1403,2403
1402,Dummy1402,2402
1401,Dummy1401,2401
1400,Dummy1400,2400
1399,Dummy1399,2399
1398,Dummy1398,2398
1397,Dummy1397,2397
1396,Dummy1396,2396
1395,Dummy1395,2395
1394,Dummy1394,2394
1393,Dummy1393,2393
1392,Dummy1392,2392
1391,Dummy1391,2391
1390,Dummy1390,2390
1389,Dummy1389,2389
1388,Dummy1388,2388
1387,Dummy1387,2387
1386,Dummy1386,2386
1385,Dummy1385,2385
1384,Dummy1384,2384
1383,Dummy1383,2383
1382,Dummy1382,2382
1381,Dummy1381,2381
1380,Dummy1380,2380
1379,Dummy1379,2379
1378,Dummy1378,2378
1377,Dummy1377,2377
1376,Dummy1376,2376
1375,Dummy1375,2375
1374,Dummy1374,2374
1373,Dummy1373,2373
1372,Dummy1372,2372
1371,Dummy1371,2371
1370,Dummy1370,2370
1369,Dummy1369,2369
1368,Dummy1368,2368
1367,Dummy1367,2367
1366,Dummy1366,2366
1365,Dummy1365,2365
1364,Dummy1364,2364
1363,Dummy1363,2363
1362,Dummy1362,2362
1361,Dummy1361,2361
1360,Dummy1360,2360
1359,Dummy1359,2359
1358,Dummy1358,2358
1357,Dummy1357,2357
1356,Dummy1356,2356
1355,Dummy1355,2355
1354,Dummy1354,2354
1353,Dummy1353,2353
1352,Dummy1352,2352
1351,Dummy1351,2351
1350,Dummy1350,2350
1349,Dummy1349,2349
1348,Dummy1348,2348
1347,Dummy1347,2347
1346,Dummy1346,2346
1345,Dummy1345,2345
1344,Dummy1344,2344
1343,Dummy1343,2343
1342,Dummy1342,2342
1341,Dummy1341,2341
1340,Dummy1340,2340
1339,Dummy1339,2339
1338,Dummy1338,2338
1337,Dummy1337,2337
1336,Dummy1336,2336
1335,Dummy1335,2335
1334,Dummy1334,2334
1333,Dummy1333,2333
1332,Dummy1332,2332
1331,Dummy1331,2331
1330,Dummy1330,2330
1329,Dummy1329,2329
1328,Dummy1328,2328
1327,Dummy1327,2327
1326,Dummy1326,2326
1325,Dummy1325,2325
1324,Dummy1324,2324
1323,Dummy1323,2323
1322,Dummy1322,2322
1321,Dummy1321,2321
1320,Dummy1320,2320
1319,Dummy1319,2319
1318,Dummy1318,2318
1317,Dummy1317,2317
1316,Dummy1316,2316
1315,Dummy1315,2315
1314,Dummy1314,2314
1313,Dummy1313,2313
1312,Dummy1312,2312
1311,Dummy1311,2311
1310,Dummy1310,2310
1309,Dummy1309,2309
1308,Dummy1308,2308
1307,Dummy1307,2307
1306,Dummy1306,2306
1305,Dummy1305,2305
1304,Dummy1304,2304
1303,Dummy1303,2303
1302,Dummy1302,2302
1301,Dummy1301,2301
1300,Dummy1300,2300
1299,Dummy1299,2299
1298,Dummy1298,2298
1297,Dummy1297,2297
1296,Dummy1296,2296
1295,Dummy1295,2295
1294,Dummy1294,2294
1293,Dummy1293,2293
1292,Dummy1292,2292
1291,Dummy1291,2291
1290,Dummy1290,2290
1289,Dummy1289,2289
1288,Dummy1288,2288
1287,Dummy1287,2287
1286,Dummy1286,2286
1285,Dummy1285,2285
1284,Dummy1284,2284
1283,Dummy1283,2283
1282,Dummy1282,2282
1281,Dummy1281,2281
1280,Dummy1280,2280
1279,Dummy1279,2279
1278,Dummy1278,2278
1277,Dummy1277,2277
1276,Dummy1276,2276
1275,Dummy1275,2275
1274,Dummy1274,2274
1273,Dummy1273,2273
1272,Dummy1272,2272
1271,Dummy1271,2271
1270,Dummy1270,2270
1269,Dummy1269,2269
1268,Dummy1268,2268
1267,Dummy1267,2267
1266,Dummy1266,2266
1265,Dummy1265,2265
1264,Dummy1264,2264
1263,Dummy1263,2263
1262,Dummy1262,2262
1261,Dummy1261,2261
1260,Dummy1260,2260
1259,Dummy1259,2259
1258,Dummy1258,2258
1257,Dummy1257,2257
1256,Dummy1256,2256
1255,Dummy1255,2255
1254,Dummy1254,2254
1253,Dummy1253,2253
1252,Dummy1252,2252
1251,Dummy1251,2251
1250,Dummy1250,2250
1249,Dummy1249,2249
1248,Dummy1248,2248
1247,Dummy1247,2247
1246,Dummy1246,2246
1245,Dummy1245,2245
1244,Dummy1244,2244
1243,Dummy1243,2243
1242,Dummy1242,2242
1241,Dummy1241,2241
1240,Dummy1240,2240
1239,Dummy1239,2239
1238,Dummy1238,2238
1237,Dummy1237,2237
1236,Dummy1236,2236
1235,Dummy1235,2235
1234,Dummy1234,2234
1233,Dummy1233,2233
1232,Dummy1232,2232
1231,Dummy1231,2231
1230,Dummy1230,2230
1229,Dummy1229,2229
1228,Dummy1228,2228
1227,Dummy1227,2227
1226,Dummy1226,2226
1225,Dummy1225,2225
1224,Dummy1224,2224
1223,Dummy1223,2223
1222,Dummy1222,2222
1221,Dummy1221,2221
1220,Dummy1220,2220
1219,Dummy1219,2219
1218,Dummy1218,2218
1217,Dummy1217,2217
1216,Dummy1216,2216
1215,Dummy1215,2215
1214,Dummy1214,2214
1213,Dummy1213,2213
1212,Dummy1212,2212
1211,Dummy1211,2211
1210,Dummy1210,2210
1209,Dummy1209,2209
1208,Dummy1208,2208
1207,Dummy1207,2207
1206,Dummy1206,2206
1205,Dummy1205,2205
1204,Dummy1204,2204
1203,Dummy1203,2203
1202,Dummy1202,2202
1201,Dummy1201,2201
1200,Dummy1200,2200
1199,Dummy1199,2199
1198,Dummy1198,2198
1197,Dummy1197,2197
1196,Dummy1196,2196
1195,Dummy1195,2195
1194,Dummy1194,2194
1193,Dummy1193,2193
1192,Dummy1192,2192
1191,Dummy1191,2191
1190,Dummy1190,2190
1189,Dummy1189,2189
1188,Dummy1188,2188
1187,Dummy1187,2187
1186,Dummy1186,2186
1185,Dummy1185,2185
1184,Dummy1184,2184
1183,Dummy1183,2183
1182,Dummy1182,2182
1181,Dummy1181,2181
1180,Dummy1180,2180
1179,Dummy1179,2179
1178,Dummy1178,2178
1177,Dummy1177,2177
1176,Dummy1176,2176
1175,Dummy1175,2175
1174,Dummy1174,2174
1173,Dummy1173,2173
1172,Dummy1172,2172
1171,Dummy1171,2171
1170,Dummy1170,2170
1169,Dummy1169,2169
1168,Dummy1168,2168
1167,Dummy1167,2167
1166,Dummy1166,2166
1165,Dummy1165,2165
1164,Dummy1164,2164
1163,Dummy1163,2163
1162,Dummy1162,2162
1161,Dummy1161,2161
1160,Dummy1160,2160
1159,Dummy1159,2159
1158,Dummy1158,2158
1157,Dummy1157,2157
1156,Dummy1156,2156
1155,Dummy1155,2155
1154,Dummy1154,2154
1153,Dummy1153,2153
1152,Dummy1152,2152
1151,Dummy1151,2151
1150,Dummy1150,2150
1149,Dummy1149,2149
1148,Dummy1148,2148
1147,Dummy1147,2147
1146,Dummy1146,2146
1145,Dummy1145,2145
1144,Dummy1144,2144
1143,Dummy1143,2143
1142,Dummy1142,2142
1141,Dummy1141,2141
1140,Dummy1140,2140
1139,Dummy1139,2139
1138,Dummy1138,2138
1137,Dummy1137,2137
1136,Dummy1136,2136
1135,Dummy1135,2135
1134,Dummy1134,2134
1133,Dummy1133,2133
1132,Dummy1132,2132
1131,Dummy1131,2131
1130,Dummy1130,2130
1129,Dummy1129,2129
1128,Dummy1128,2128
1127,Dummy1127,2127
1126,Dummy1126,2126
1125,Dummy1125,2125
1124,Dummy1124,2124
1123,Dummy1123,2123
1122,Dummy1122,2122
1121,Dummy1121,2121
1120,Dummy1120,2120
1119,Dummy1119,2119
1118,Dummy1118,2118
1117,Dummy1117,2117
1116,Dummy1116,2116
1115,Dummy1115,2115
1114,Dummy1114,2114
1113,Dummy1113,2113
1112,Dummy1112,2112
1111,Dummy1111,2111
1110,Dummy1110,2110
1109,Dummy1109,2109
1108,Dummy1108,2108
1107,Dummy1107,2107
1106,Dummy1106,2106
1105,Dummy1105,2105
1104,Dummy1104,2104
1103,Dummy1103,2103
1102,Dummy1102,2102
1101,Dummy1101,2101
1100,Dummy1100,2100
1099,Dummy1099,2099
1098,Dummy1098,2098
1097,Dummy1097,2097
1096,Dummy1096,2096
1095,Dummy1095,2095
1094,Dummy1094,2094
1093,Dummy1093,2093
1092,Dummy1092,2092
1091,Dummy1091,2091
1090,Dummy1090,2090
1089,Dummy1089,2089
1088,Dummy1088,2088
1087,Dummy1087,2087
1086,Dummy1086,2086
1085,Dummy1085,2085
1084,Dummy1084,2084
1083,Dummy1083,2083
1082,Dummy1082,2082
1081,Dummy1081,2081
1080,Dummy1080,2080
1079,Dummy1079,2079
1078,Dummy1078,2078
1077,Dummy1077,2077
1076,Dummy1076,2076
1075,Dummy1075,2075
1074,Dummy1074,2074
1073,Dummy1073,2073
1072,Dummy1072,2072
1071,Dummy1071,2071
1070,Dummy1070,2070
1069,Dummy1069,2069
1068,Dummy1068,2068
1067,Dummy1067,2067
1066,Dummy1066,2066
1065,Dummy1065,2065
1064,Dummy1064,2064
1063,Dummy1063,2063
1062,Dummy1062,2062
1061,Dummy1061,2061
1060,Dummy1060,2060
1059,Dummy1059,2059
1058,Dummy1058,2058
1057,Dummy1057,2057
1056,Dummy1056,2056
1055,Dummy1055,2055
1054,Dummy1054,2054
1053,Dummy1053,2053
1052,Dummy1052,2052
1051,Dummy1051,2051
1050,Dummy1050,2050
1049,Dummy1049,2049
1048,Dummy1048,2048
1047,Dummy1047,2047
1046,Dummy1046,2046
1045,Dummy1045,2045
1044,Dummy1044,2044
1043,Dummy1043,2043
1042,Dummy1042,2042
1041,Dummy1041,2041
1040,Dummy1040,2040
1039,Dummy1039,2039
1038,Dummy1038,2038
1037,Dummy1037,2037
1036,Dummy1036,2036
1035,Dummy1035,2035
1034,Dummy1034,2034
1033,Dummy1033,2033
1032,Dummy1032,2032
1031,Dummy1031,2031
1030,Dummy1030,2030
1029,Dummy1029,2029
1028,Dummy1028,2028
1027,Dummy1027,2027
1026,Dummy1026,2026
1025,Dummy1025,2025
1024,Dummy1024,2024
1023,Dummy1023,2023
1022,Dummy1022,2022
1021,Dummy1021,2021
1020,Dummy1020,2020
1019,Dummy1019,2019
1018,Dummy1018,2018
1017,Dummy1017,2017
1016,Dummy1016,2016
1015,Dummy1015,2015
1014,Dummy1014,2014
1013,Dummy1013,2013
1012,Dummy1012,2012
1011,Dummy1011,2011
1010,Dummy1010,2010
1009,Dummy1009,2009
1008,Dummy1008,2008
1007,Dummy1007,2007
1006,Dummy1006,2006
1005,Dummy1005,2005
1004,Dummy1004,2004
1003,Dummy1003,2003
1002,Dummy1002,2002
1001,Dummy1001,2001
1000,Dummy1000,2000
999,Dummy999,1999
998,Dummy998,1998
997,Dummy997,1997
996,Dummy996,1996
995,Dummy995,1995
994,Dummy994,1994
993,Dummy993,1993
992,Dummy992,1992
991,Dummy991,1991
990,Dummy990,1990
989,Dummy989,1989
988,Dummy988,1988
987,Dummy987,1987
986,Dummy986,1986
985,Dummy985,1985
984,Dummy984,1984
983,Dummy983,1983
982,Dummy982,1982
981,Dummy981,1981
980,Dummy980,1980
979,Dummy979,1979
978,Dummy978,1978
977,Dummy977,1977
976,Dummy976,1976
975,Dummy975,1975
974,Dummy974,1974
973,Dummy973,1973
972,Dummy972,1972
971,Dummy971,1971
970,Dummy970,1970
969,Dummy969,1969
968,Dummy968,1968
967,Dummy967,1967
966,Dummy966,1966
965,Dummy965,1965
964,Dummy964,1964
963,Dummy963,1963
962,Dummy962,1962
961,Dummy961,1961
960,Dummy960,1960
959,Dummy959,1959
958,Dummy958,1958
957,Dummy957,1957
956,Dummy956,1956
955,Dummy955,1955
954,Dummy954,1954
953,Dummy953,1953
952,Dummy952,1952
951,Dummy951,1951
950,Dummy950,1950
949,Dummy949,1949
948,Dummy948,1948
947,Dummy947,1947
946,Dummy946,1946
945,Dummy945,1945
944,Dummy944,1944
943,Dummy943,1943
942,Dummy942,1942
941,Dummy941,1941
940,Dummy940,1940
939,Dummy939,1939
938,Dummy938,1938
937,Dummy937,1937
936,Dummy936,1936
935,Dummy935,1935
934,Dummy934,1934
933,Dummy933,1933
932,Dummy932,1932
931,Dummy931,1931
930,Dummy930,1930
929,Dummy929,1929
928,Dummy928,1928
927,Dummy927,1927
926,Dummy926,1926
925,Dummy925,1925
924,Dummy924,1924
923,Dummy923,1923
922,Dummy922,1922
921,Dummy921,1921
920,Dummy920,1920
919,Dummy919,1919
918,Dummy918,1918
917,Dummy917,1917
916,Dummy916,1916
915,Dummy915,1915
914,Dummy914,1914
913,Dummy913,1913
912,Dummy912,1912
911,Dummy911,1911
910,Dummy910,1910
909,Dummy909,1909
908,Dummy908,1908
907,Dummy907,1907
906,Dummy906,1906
905,Dummy905,1905
904,Dummy904,1904
903,Dummy903,1903
902,Dummy902,1902
901,Dummy901,1901
900,Dummy900,1900
899,Dummy899,1899
898,Dummy898,1898
897,Dummy897,1897
896,Dummy896,1896
895,Dummy895,1895
894,Dummy894,1894
893,Dummy893,1893
892,Dummy892,1892
891,Dummy891,1891
890,Dummy890,1890
889,Dummy889,1889
888,Dummy888,1888
887,Dummy887,1887
886,Dummy886,1886
885,Dummy885,1885
884,Dummy884,1884
883,Dummy883,1883
882,Dummy882,1882
881,Dummy881,1881
880,Dummy880,1880
879,Dummy879,1879
878,Dummy878,1878
877,Dummy877,1877
876,Dummy876,1876
875,Dummy875,1875
874,Dummy874,1874
873,Dummy873,1873
872,Dummy872,1872
871,Dummy871,1871
870,Dummy870,1870
869,Dummy869,1869
868,Dummy868,1868
867,Dummy867,1867
866,Dummy866,1866
865,Dummy865,1865
864,Dummy864,1864
863,Dummy863,1863
862,Dummy862,1862
861,Dummy861,1861
860,Dummy860,1860
859,Dummy859,1859
858,Dummy858,1858
857,Dummy857,1857
856,Dummy856,1856
855,Dummy855,1855
854,Dummy854,1854
853,Dummy853,1853
852,Dummy852,1852
851,Dummy851,1851
850,Dummy850,1850
849,Dummy849,1849
848,Dummy848,1848
847,Dummy847,1847
846,Dummy846,1846
845,Dummy845,1845
844,Dummy844,1844
843,Dummy843,1843
842,Dummy842,1842
841,Dummy841,1841
840,Dummy840,1840
839,Dummy839,1839
838,Dummy838,1838
837,Dummy837,1837
836,Dummy836,1836
835,Dummy835,1835
834,Dummy834,1834
833,Dummy833,1833
832,Dummy832,1832
831,Dummy831,1831
830,Dummy830,1830
829,Dummy829,1829
828,Dummy828,1828
827,Dummy827,1827
826,Dummy826,1826
825,Dummy825,1825
824,Dummy824,1824
823,Dummy823,1823
822,Dummy822,1822
821,Dummy821,1821
820,Dummy820,1820
819,Dummy819,1819
818,Dummy818,1818
817,Dummy817,1817
816,Dummy816,1816
815,Dummy815,1815
814,Dummy814,1814
813,Dummy813,1813
812,Dummy812,1812
811,Dummy811,1811
810,Dummy810,1810
809,Dummy809,1809
808,Dummy808,1808
807,Dummy807,1807
806,Dummy806,1806
805,Dummy805,1805
804,Dummy804,1804
803,Dummy803,1803
802,Dummy802,1802
801,Dummy801,1801
800,Dummy800,1800
799,Dummy799,1799
798,Dummy798,1798
797,Dummy797,1797
796,Dummy796,1796
795,Dummy795,1795
794,Dummy794,1794
793,Dummy793,1793
792,Dummy792,1792
791,Dummy791,1791
790,Dummy790,1790
789,Dummy789,1789
788,Dummy788,1788
787,Dummy787,1787
786,Dummy786,1786
785,Dummy785,1785
784,Dummy784,1784
783,Dummy783,1783
782,Dummy782,1782
781,Dummy781,1781
780,Dummy780,1780
779,Dummy779,1779
778,Dummy778,1778
777,Dummy777,1777
776,Dummy776,1776
775,Dummy775,1775
774,Dummy774,1774
773,Dummy773,1773
772,Dummy772,1772
771,Dummy771,1771
770,Dummy770,1770
769,Dummy769,1769
768,Dummy768,1768
767,Dummy767,1767
766,Dummy766,1766
765,Dummy765,1765
764,Dummy764,1764
763,Dummy763,1763
762,Dummy762,1762
761,Dummy761,1761
760,Dummy760,1760
759,Dummy759,1759
758,Dummy758,1758
757,Dummy757,1757
756,Dummy756,1756
755,Dummy755,1755
754,Dummy754,1754
753,Dummy753,1753
752,Dummy752,1752
751,Dummy751,1751
750,Dummy750,1750
749,Dummy749,1749
748,Dummy748,1748
747,Dummy747,1747
746,Dummy746,1746
745,Dummy745,1745
744,Dummy744,1744
743,Dummy743,1743
742,Dummy742,1742
741,Dummy741,1741
740,Dummy740,1740
739,Dummy739,1739
738,Dummy738,1738
737,Dummy737,1737
736,Dummy736,1736
735,Dummy735,1735
734,Dummy734,1734
733,Dummy733,1733
732,Dummy732,1732
731,Dummy731,1731
730,Dummy730,1730
729,Dummy729,1729
728,Dummy728,1728
727,Dummy727,1727
726,Dummy726,1726
725,Dummy725,1725
724,Dummy724,1724
723,Dummy723,1723
722,Dummy722,1722
721,Dummy721,1721
720,Dummy720,1720
719,Dummy719,1719
718,Dummy718,1718
717,Dummy717,1717
716,Dummy716,1716
715,Dummy715,1715
714,Dummy714,1714
713,Dummy713,1713
712,Dummy712,1712
711,Dummy711,1711
710,Dummy710,1710
709,Dummy709,1709
708,Dummy708,1708
707,Dummy707,1707
706,Dummy706,1706
705,Dummy705,1705
704,Dummy704,1704
703,Dummy703,1703
702,Dummy702,1702
701,Dummy701,1701
700,Dummy700,1700
699,Dummy699,1699
698,Dummy698,1698
697,Dummy697,1697
696,Dummy696,1696
695,Dummy695,1695
694,Dummy694,1694
693,Dummy693,1693
692,Dummy692,1692
691,Dummy691,1691
690,Dummy690,1690
689,Dummy689,1689
688,Dummy688,1688
687,Dummy687,1687
686,Dummy686,1686
685,Dummy685,1685
684,Dummy684,1684
683,Dummy683,1683
682,Dummy682,1682
681,Dummy681,1681
680,Dummy680,1680
679,Dummy679,1679
678,Dummy678,1678
677,Dummy677,1677
676,Dummy676,1676
675,Dummy675,1675
674,Dummy674,1674
673,Dummy673,1673
672,Dummy672,1672
671,Dummy671,1671
670,Dummy670,1670
669,Dummy669,1669
668,Dummy668,1668
667,Dummy667,1667
666,Dummy666,1666
665,Dummy665,1665
664,Dummy664,1664
663,Dummy663,1663
662,Dummy662,1662
661,Dummy661,1661
660,Dummy660,1660
659,Dummy659,1659
658,Dummy658,1658
657,Dummy657,1657
656,Dummy656,1656
655,Dummy655,1655
654,Dummy654,1654
653,Dummy653,1653
652,Dummy652,1652
651,Dummy651,1651
650,Dummy650,1650
649,Dummy649,1649
648,Dummy648,1648
647,Dummy647,1647
646,Dummy646,1646
645,Dummy645,1645
644,Dummy644,1644
643,Dummy643,1643
642,Dummy642,1642
641,Dummy641,1641
640,Dummy640,1640
639,Dummy639,1639
638,Dummy638,1638
637,Dummy637,1637
636,Dummy636,1636
635,Dummy635,1635
634,Dummy634,1634
633,Dummy633,1633
632,Dummy632,1632
631,Dummy631,1631
630,Dummy630,1630
629,Dummy629,1629
628,Dummy628,1628
627,Dummy627,1627
626,Dummy626,1626
625,Dummy625,1625
624,Dummy624,1624
623,Dummy623,1623
622,Dummy622,1622
621,Dummy621,1621
620,Dummy620,1620
619,Dummy619,1619
618,Dummy618,1618
617,Dummy617,1617
616,Dummy616,1616
615,Dummy615,1615
614,Dummy614,1614
613,Dummy613,1613
612,Dummy612,1612
611,Dummy611,1611
610,Dummy610,1610
609,Dummy609,1609
608,Dummy608,1608
607,Dummy607,1607
606,Dummy606,1606
605,Dummy605,1605
604,Dummy604,1604
603,Dummy603,1603
602,Dummy602,1602
601,Dummy601,1601
600,Dummy600,1600
599,Dummy599,1599
598,Dummy598,1598
597,Dummy597,1597
596,Dummy596,1596
595,Dummy595,1595
594,Dummy594,1594
593,Dummy593,1593
592,Dummy592,1592
591,Dummy591,1591
590,Dummy590,1590
589,Dummy589,1589
588,Dummy588,1588
587,Dummy587,1587
586,Dummy586,1586
585,Dummy585,1585
584,Dummy584,1584
583,Dummy583,1583
582,Dummy582,1582
581,Dummy581,1581
580,Dummy580,1580
579,Dummy579,1579
578,Dummy578,1578
577,Dummy577,1577
576,Dummy576,1576
575,Dummy575,1575
574,Dummy574,1574
573,Dummy573,1573
572,Dummy572,1572
571,Dummy571,1571
570,Dummy570,1570
569,Dummy569,1569
568,Dummy568,1568
567,Dummy567,1567
566,Dummy566,1566
565,Dummy565,1565
564,Dummy564,1564
563,Dummy563,1563
562,Dummy562,1562
561,Dummy561,1561
560,Dummy560,1560
559,Dummy559,1559
558,Dummy558,1558
557,Dummy557,1557
556,Dummy556,1556
555,Dummy555,1555
554,Dummy554,1554
553,Dummy553,1553
552,Dummy552,1552
551,Dummy551,1551
550,Dummy550,1550
549,Dummy549,1549
548,Dummy548,1548
547,Dummy547,1547
546,Dummy546,1546
545,Dummy545,1545
544,Dummy544,1544
543,Dummy543,1543
542,Dummy542,1542
541,Dummy541,1541
540,Dummy540,1540
539,Dummy539,1539
538,Dummy538,1538
537,Dummy537,1537
536,Dummy536,1536
535,Dummy535,1535
534,Dummy534,1534
533,Dummy533,1533
532,Dummy532,1532
531,Dummy531,1531
530,Dummy530,1530
529,Dummy529,1529
528,Dummy528,1528
527,Dummy527,1527
526,Dummy526,1526
525,Dummy525,1525
524,Dummy524,1524
523,Dummy523,1523
522,Dummy522,1522
521,Dummy521,1521
520,Dummy520,1520
519,Dummy519,1519
518,Dummy518,1518
517,Dummy517,1517
516,Dummy516,1516
515,Dummy515,1515
514,Dummy514,1514
513,Dummy513,1513
512,Dummy512,1512
511,Dummy511,1511
510,Dummy510,1510
509,Dummy509,1509
508,Dummy508,1508
507,Dummy507,1507
506,Dummy506,1506
505,Dummy505,1505
504,Dummy504,1504
503,Dummy503,1503
502,Dummy502,1502
501,Dummy501,1501
500,Dummy500,1500
499,Dummy499,1499
498,Dummy498,1498
497,Dummy497,1497
496,Dummy496,1496
495,Dummy495,1495
494,Dummy494,1494
493,Dummy493,1493
492,Dummy492,1492
491,Dummy491,1491
490,Dummy490,1490
489,Dummy489,1489
488,Dummy488,1488
487,Dummy487,1487
486,Dummy486,1486
485,Dummy485,1485
484,Dummy484,1484
483,Dummy483,1483
482,Dummy482,1482
481,Dummy481,1481
480,Dummy480,1480
479,Dummy479,1479
478,Dummy478,1478
477,Dummy477,1477
476,Dummy476,1476
475,Dummy475,1475
474,Dummy474,1474
473,Dummy473,1473
472,Dummy472,1472
471,Dummy471,1471
470,Dummy470,1470
469,Dummy469,1469
468,Dummy468,1468
467,Dummy467,1467
466,Dummy466,1466
465,Dummy465,1465
464,Dummy464,1464
463,Dummy463,1463
462,Dummy462,1462
461,Dummy461,1461
460,Dummy460,1460
459,Dummy459,1459
458,Dummy458,1458
457,Dummy457,1457
456,Dummy456,1456
455,Dummy455,1455
454,Dummy454,1454
453,Dummy453,1453
452,Dummy452,1452
451,Dummy451,1451
450,Dummy450,1450
449,Dummy449,1449
448,Dummy448,1448
447,Dummy447,1447
446,Dummy446,1446
445,Dummy445,1445
444,Dummy444,1444
443,Dummy443,1443
442,Dummy442,1442
441,Dummy441,1441
440,Dummy440,1440
439,Dummy439,1439
438,Dummy438,1438
437,Dummy437,1437
436,Dummy436,1436
435,Dummy435,1435
434,Dummy434,1434
433,Dummy433,1433
432,Dummy432,1432
431,Dummy431,1431
430,Dummy430,1430
429,Dummy429,1429
428,Dummy428,1428
427,Dummy427,1427
426,Dummy426,1426
425,Dummy425,1425
424,Dummy424,1424
423,Dummy423,1423
422,Dummy422,1422
421,Dummy421,1421
420,Dummy420,1420
419,Dummy419,1419
418,Dummy418,1418
417,Dummy417,1417
416,Dummy416,1416
415,Dummy415,1415
414,Dummy414,1414
413,Dummy413,1413
412,Dummy412,1412
411,Dummy411,1411
410,Dummy410,1410
409,Dummy409,1409
408,Dummy408,1408
407,Dummy407,1407
406,Dummy406,1406
405,Dummy405,1405
404,Dummy404,1404
403,Dummy403,1403
402,Dummy402,1402
401,Dummy401,1401
400,Dummy400,1400
399,Dummy399,1399
398,Dummy398,1398
397,Dummy397,1397
396,Dummy396,1396
395,Dummy395,1395
394,Dummy394,1394
393,Dummy393,1393
392,Dummy392,1392
391,Dummy391,1391
390,Dummy390,1390
389,Dummy389,1389
388,Dummy388,1388
387,Dummy387,1387
386,Dummy386,1386
385,Dummy385,1385
384,Dummy384,1384
383,Dummy383,1383
382,Dummy382,1382
381,Dummy381,1381
380,Dummy380,1380
379,Dummy379,1379
378,Dummy378,1378
377,Dummy377,1377
376,Dummy376,1376
375,Dummy375,1375
374,Dummy374,1374
373,Dummy373,1373
372,Dummy372,1372
371,Dummy371,1371
370,Dummy370,1370
369,Dummy369,1369
368,Dummy368,1368
367,Dummy367,1367
366,Dummy366,1366
365,Dummy365,1365
364,Dummy364,1364
363,Dummy363,1363
362,Dummy362,1362
361,Dummy361,1361
360,Dummy360,1360
359,Dummy359,1359
358,Dummy358,1358
357,Dummy357,1357
356,Dummy356,1356
355,Dummy355,1355
354,Dummy354,1354
353,Dummy353,1353
352,Dummy352,1352
351,Dummy351,1351
350,Dummy350,1350
349,Dummy349,1349
348,Dummy348,1348
347,Dummy347,1347
346,Dummy346,1346
345,Dummy345,1345
344,Dummy344,1344
343,Dummy343,1343
342,Dummy342,1342
341,Dummy341,1341
340,Dummy340,1340
339,Dummy339,1339
338,Dummy338,1338
337,Dummy337,1337
336,Dummy336,1336
335,Dummy335,1335
334,Dummy334,1334
333,Dummy333,1333
332,Dummy332,1332
331,Dummy331,1331
330,Dummy330,1330
329,Dummy329,1329
328,Dummy328,1328
327,Dummy327,1327
326,Dummy326,1326
325,Dummy325,1325
324,Dummy324,1324
323,Dummy323,1323
322,Dummy322,1322
321,Dummy321,1321
320,Dummy320,1320
319,Dummy319,1319
318,Dummy318,1318
317,Dummy317,1317
316,Dummy316,1316
315,Dummy315,1315
314,Dummy314,1314
313,Dummy313,1313
312,Dummy312,1312
311,Dummy311,1311
310,Dummy310,1310
309,Dummy309,1309
308,Dummy308,1308
307,Dummy307,1307
306,Dummy306,1306
305,Dummy305,1305
304,Dummy304,1304
303,Dummy303,1303
302,Dummy302,1302
301,Dummy301,1301
300,Dummy300,1300
299,Dummy299,1299
298,Dummy298,1298
297,Dummy297,1297
296,Dummy296,1296
295,Dummy295,1295
294,Dummy294,1294
293,Dummy293,1293
292,Dummy292,1292
291,Dummy291,1291
290,Dummy290,1290
289,Dummy289,1289
288,Dummy288,1288
287,Dummy287,1287
286,Dummy286,1286
285,Dummy285,1285
284,Dummy284,1284
283,Dummy283,1283
282,Dummy282,1282
281,Dummy281,1281
280,Dummy280,1280
279,Dummy279,1279
278,Dummy278,1278
277,Dummy277,1277
276,Dummy276,1276
275,Dummy275,1275
274,Dummy274,1274
273,Dummy273,1273
272,Dummy272,1272
271,Dummy271,1271
270,Dummy270,1270
269,Dummy269,1269
268,Dummy268,1268
267,Dummy267,1267
266,Dummy266,1266
265,Dummy265,1265
264,Dummy264,1264
263,Dummy263,1263
262,Dummy262,1262
261,Dummy261,1261
260,Dummy260,1260
259,Dummy259,1259
258,Dummy258,1258
257,Dummy257,1257
256,Dummy256,1256
255,Dummy255,1255
254,Dummy254,1254
253,Dummy253,1253
252,Dummy252,1252
251,Dummy251,1251
250,Dummy250,1250
249,Dummy249,1249
248,Dummy248,1248
247,Dummy247,1247
246,Dummy246,1246
245,Dummy245,1245
244,Dummy244,1244
243,Dummy243,1243
242,Dummy242,1242
241,Dummy241,1241
240,Dummy240,1240
239,Dummy239,1239
238,Dummy238,1238
237,Dummy237,1237
236,Dummy236,1236
235,Dummy235,1235
234,Dummy234,1234
233,Dummy233,1233
232,Dummy232,1232
231,Dummy231,1231
230,Dummy230,1230
229,Dummy229,1229
228,Dummy228,1228
227,Dummy227,1227
226,Dummy226,1226
225,Dummy225,1225
224,Dummy224,1224
223,Dummy223,1223
222,Dummy222,1222
221,Dummy221,1221
220,Dummy220,1220
219,Dummy219,1219
218,Dummy218,1218
217,Dummy217,1217
216,Dummy216,1216
215,Dummy215,1215
214,Dummy214,1214
213,Dummy213,1213
212,Dummy212,1212
211,Dummy211,1211
210,Dummy210,1210
209,Dummy209,1209
208,Dummy208,1208
207,Dummy207,1207
206,Dummy206,1206
205,Dummy205,1205
204,Dummy204,1204
203,Dummy203,1203
202,Dummy202,1202
201,Dummy201,1201
200,Dummy200,1200
199,Dummy199,1199
198,Dummy198,1198
197,Dummy197,1197
196,Dummy196,1196
195,Dummy195,1195
194,Dummy194,1194
193,Dummy193,1193
192,Dummy192,1192
191,Dummy191,1191
190,Dummy190,1190
189,Dummy189,1189
188,Dummy188,1188
187,Dummy187,1187
186,Dummy186,1186
185,Dummy185,1185
184,Dummy184,1184
183,Dummy183,1183
182,Dummy182,1182
181,Dummy181,1181
180,Dummy180,1180
179,Dummy179,1179
178,Dummy178,1178
177,Dummy177,1177
176,Dummy176,1176
175,Dummy175,1175
174,Dummy174,1174
173,Dummy173,1173
172,Dummy172,1172
171,Dummy171,1171
170,Dummy170,1170
169,Dummy169,1169
168,Dummy168,1168
167,Dummy167,1167
166,Dummy166,1166
165,Dummy165,1165
164,Dummy164,1164
163,Dummy163,1163
162,Dummy162,1162
161,Dummy161,1161
160,Dummy160,1160
159,Dummy159,1159
158,Dummy158,1158
157,Dummy157,1157
156,Dummy156,1156
155,Dummy155,1155
154,Dummy154,1154
153,Dummy153,1153
152,Dummy152,1152
151,Dummy151,1151
150,Dummy150,1150
149,Dummy149,1149
148,Dummy148,1148
147,Dummy147,1147
146,Dummy146,1146
145,Dummy145,1145
144,Dummy144,1144
143,Dummy143,1143
142,Dummy142,1142
141,Dummy141,1141
140,Dummy140,1140
139,Dummy139,1139
138,Dummy138,1138
137,Dummy137,1137
136,Dummy136,1136
135,Dummy135,1135
134,Dummy134,1134
133,Dummy133,1133
132,Dummy132,1132
131,Dummy131,1131
130,Dummy130,1130
129,Dummy129,1129
128,Dummy128,1128
127,Dummy127,1127
126,Dummy126,1126
125,Dummy125,1125
124,Dummy124,1124
123,Dummy123,1123
122,Dummy122,1122
121,Dummy121,1121
120,Dummy120,1120
119,Dummy119,1119
118,Dummy118,1118
117,Dummy117,1117
116,Dummy116,1116
115,Dummy115,1115
114,Dummy114,1114
113,Dummy113,1113
112,Dummy112,1112
111,Dummy111,1111
110,Dummy110,1110
109,Dummy109,1109
108,Dummy108,1108
107,Dummy107,1107
106,Dummy106,1106
105,Dummy105,1105
104,Dummy104,1104
103,Dummy103,1103
102,Dummy102,1102
101,Dummy101,1101
100,Dummy100,1100
99,Dummy99,1099
98,Dummy98,1098
97,Dummy97,1097
96,Dummy96,1096
95,Dummy95,1095
94,Dummy94,1094
93,Dummy93,1093
92,Dummy92,1092
91,Dummy91,1091
90,Dummy90,1090
89,Dummy89,1089
88,Dummy88,1088
87,Dummy87,1087
86,Dummy86,1086
85,Dummy85,1085
84,Dummy84,1084
83,Dummy83,1083
82,Dummy82,1082
81,Dummy81,1081
80,Dummy80,1080
79,Dummy79,1079
78,Dummy78,1078
77,Dummy77,1077
76,Dummy76,1076
75,Dummy75,1075
74,Dummy74,1074
73,Dummy73,1073
72,Dummy72,1072
71,Dummy71,1071
70,Dummy70,1070
69,Dummy69,1069
68,Dummy68,1068
67,Dummy67,1067
66,Dummy66,1066
65,Dummy65,1065
64,Dummy64,1064
63,Dummy63,1063
62,Dummy62,1062
61,Dummy61,1061
60,Dummy60,1060
59,Dummy59,1059
58,Dummy58,1058
57,Dummy57,1057
56,Dummy56,1056
55,Dummy55,1055
54,Dummy54,1054
53,Dummy53,1053
52,Dummy52,1052
51,Dummy51,1051
50,Dummy50,1050
49,Dummy49,1049
48,Dummy48,1048
47,Dummy47,1047
46,Dummy46,1046
45,Dummy45,1045
44,Dummy44,1044
43,Dummy43,1043
42,Dummy42,1042
41,Dummy41,1041
40,Dummy40,1040
39,Dummy39,1039
38,Dummy38,1038
37,Dummy37,1037
36,Dummy36,1036
35,Dummy35,1035
34,Dummy34,1034
33,Dummy33,1033
32,Dummy32,1032
31,Dummy31,1031
30,Dummy30,1030
29,Dummy29,1029
28,Dummy28,1028
27,Dummy27,1027
26,Dummy26,1026
25,Dummy25,1025
24,Dummy24,1024
23,Dummy23,1023
22,Dummy22,1022
21,Dummy21,1021
20,Dummy20,1020
19,Dummy19,1019
18,Dummy18,1018
17,Dummy17,1017
16,Dummy16,1016
15,Dummy15,1015
14,Dummy14,1014
13,Dummy13,1013
12,Dummy12,1012
11,Dummy11,1011
10,Dummy10,1010
9,Dummy9,1009
8,Dummy8,1008
7,Dummy7,1007
6,Dummy6,1006
5,Dummy5,1005
4,Dummy4,1004
3,Dummy3,1003
2,Dummy2,1002
1,Dummy1,1001
0,Dummy0,1000
